{"date": "2018-12-03 08:00:10", "callUrl": "None", "city": "stavropol", "uniqueCall": "true", "redirectNumber": "78652410211", "utmContent": "<не заполнено>", "yaClientId": "None", "source": "yandex", "medium": "cpc", "callphase": "calldisconnected", "duration": "62", "ref": "", "additionalTags": "[]", "hostname": "promo.morozova26.ru", "waitingConnect": "None", "ctCallerId": "8d55173a64626116f3dadcde5640c50b", "callbackCall": "true", "keyword": "jaguar_xj", "callClientUniqueId": "None", "successful": "true", "order": "None", "callId": "3646294", "utmSource": "yandex", "sipCallId": "None", "clientId": "", "callerNumber": "79667225137", "ip": "85.115.248.219/32", "utmTerm": "jaguar_xj", "userAgent": "Mozilla/5.0 (Linux; Android 8.0.0; SM-G960F Build/R16NW; wv) AppleWebKit/537.36 (KHTML, like Gecko) Version/4.0 Chrome/62.0.3202.84 Mobile Safari/537.36 YandexSearch/7.71 YandexSearchBrowser/7.71", "sessionId": "171034624", "utmCampaign": "RSYA_Tachki", "url": "http://promo.morozova26.ru/?utm_source=yandex&utm_medium=cpc&utm_term=jaguar_xj&utm_campaign=RSYA_Tachki", "attrs": "None", "phoneNumber": "78652410211", "uniqTargetCall": "true", "targetCall": "true", "attribution": "1", "utmMedium": "cpc", "orders": "[]"}
{"date": "2018-12-03 09:15:02", "callUrl": "None", "city": "krasnodar", "uniqueCall": "true", "redirectNumber": "78652410211", "utmContent": "<не указано>", "yaClientId": "None", "source": "morozova.nasledie26.ru", "medium": "referral", "callphase": "calldisconnected", "duration": "435", "ref": "http://morozova.nasledie26.ru/", "additionalTags": "[]", "hostname": "morozova26.ru", "waitingConnect": "None", "ctCallerId": "6d0cadb6012c21f0734e27b394b4ae26", "callbackCall": "true", "keyword": "(not set)", "callClientUniqueId": "None", "successful": "true", "order": "None", "callId": "3648249", "utmSource": "<не указано>", "sipCallId": "None", "clientId": "155566041.1489760781", "callerNumber": "79188003076", "ip": "95.153.134.178/32", "utmTerm": "<не указано>", "userAgent": "Mozilla/5.0 (iPhone; CPU iPhone OS 11_4 like Mac OS X) AppleWebKit/604.1.34 (KHTML, like Gecko) CriOS/70.0.3538.75 Mobile/15E148 Safari/604.1", "sessionId": "173443732", "utmCampaign": "<не указано>", "url": "http://morozova26.ru/", "attrs": "None", "phoneNumber": "78652410211", "uniqTargetCall": "true", "targetCall": "true", "attribution": "1", "utmMedium": "<не указано>", "orders": "[]"}
{"date": "2018-12-03 10:00:47", "callUrl": "None", "city": "krasnodar", "uniqueCall": "true", "redirectNumber": "78652410211", "utmContent": "<не указано>", "yaClientId": "None", "source": "yandex", "medium": "organic", "callphase": "calldisconnected", "duration": "242", "ref": "https://yandex.ru/", "additionalTags": "[]", "hostname": "morozova26.ru", "waitingConnect": "None", "ctCallerId": "5f2bf378e227eebedad0e90182977641", "callbackCall": "true", "keyword": "(not set)", "callClientUniqueId": "None", "successful": "true", "order": "None", "callId": "3649938", "utmSource": "<не указано>", "sipCallId": "None", "clientId": "", "callerNumber": "79187728847", "ip": "95.153.135.12/32", "utmTerm": "<не указано>", "userAgent": "Mozilla/5.0 (Linux; Android 7.1.2; Mi A1 Build/N2G47H) AppleWebKit/537.36 (KHTML, like Gecko) Chrome/69.0.3497.100 YaBrowser/18.10.1.887.00 Mobile Safari/537.36", "sessionId": "173499201", "utmCampaign": "<не указано>", "url": "http://morozova26.ru/", "attrs": "None", "phoneNumber": "78652410211", "uniqTargetCall": "true", "targetCall": "true", "attribution": "1", "utmMedium": "<не указано>", "orders": "[]"}
{"date": "2018-12-04 14:25:18", "callUrl": "None", "city": "stavropol", "uniqueCall": "true", "redirectNumber": "78652410211", "utmContent": "<не указано>", "yaClientId": "None", "source": "(direct)", "medium": "(none)", "callphase": "calldisconnected", "duration": "0", "ref": "", "additionalTags": "[]", "hostname": "morozova26.ru", "waitingConnect": "4", "ctCallerId": "be71ed1b8b514c638336778de8c4d88d", "callbackCall": "true", "keyword": "(not set)", "callClientUniqueId": "None", "successful": "false", "order": "None", "callId": "3688409", "utmSource": "<не указано>", "sipCallId": "None", "clientId": "", "callerNumber": "79624015236", "ip": "81.177.57.226/32", "utmTerm": "<не указано>", "userAgent": "Mozilla/5.0 (Windows NT 6.3; rv:63.0) Gecko/20100101 Firefox/63.0", "sessionId": "175215646", "utmCampaign": "<не указано>", "url": "http://morozova26.ru/", "attrs": "None", "phoneNumber": "78652410211", "uniqTargetCall": "false", "targetCall": "false", "attribution": "1", "utmMedium": "<не указано>", "orders": "[]"}
{"date": "2018-12-06 08:56:49", "callUrl": "None", "city": "stavropol", "uniqueCall": "true", "redirectNumber": "78652482044", "utmContent": "<не указано>", "yaClientId": "None", "source": "yandex", "medium": "organic", "callphase": "calldisconnected", "duration": "0", "ref": "https://yandex.ru/", "additionalTags": "[]", "hostname": "morozova26.ru", "waitingConnect": "36", "ctCallerId": "6845ee22a515139015fc0806e02f9a0d", "callbackCall": "false", "keyword": "(not set)", "callClientUniqueId": "None", "successful": "false", "order": "None", "callId": "3726601", "utmSource": "<не указано>", "sipCallId": "90058460-73be-1237-3d94-0050569465cc", "clientId": "", "callerNumber": "79624406644", "ip": "85.115.248.239/32", "utmTerm": "<не указано>", "userAgent": "Mozilla/5.0 (Linux; Android 5.1.1; Aster Build/5.1.1_3.004.2.244) AppleWebKit/537.36 (KHTML, like Gecko) Chrome/66.0.3359.158 Mobile Safari/537.36", "sessionId": "177323399", "utmCampaign": "<не указано>", "url": "http://morozova26.ru/", "attrs": "None", "phoneNumber": "78652979542", "uniqTargetCall": "false", "targetCall": "false", "attribution": "1", "utmMedium": "<не указано>", "orders": "[]"}
{"date": "2018-12-06 15:36:19", "callUrl": "None", "city": "cherkessk", "uniqueCall": "true", "redirectNumber": "78652410211", "utmContent": "<не указано>", "yaClientId": "None", "source": "(direct)", "medium": "(none)", "callphase": "calldisconnected", "duration": "0", "ref": "", "additionalTags": "[]", "hostname": "morozova26.ru", "waitingConnect": "None", "ctCallerId": "939df1ec4e3e0dbcec010ce2192a66f5", "callbackCall": "true", "keyword": "(not set)", "callClientUniqueId": "None", "successful": "false", "order": "None", "callId": "3742177", "utmSource": "<не указано>", "sipCallId": "None", "clientId": "1492402460.1543975749", "callerNumber": "79094997779", "ip": "91.238.29.222/32", "utmTerm": "<не указано>", "userAgent": "Mozilla/5.0 (Linux; Android 7.0; SM-A510F Build/NRD90M) AppleWebKit/537.36 (KHTML, like Gecko) Chrome/69.0.3497.100 YaBrowser/18.10.1.887.00 Mobile Safari/537.36", "sessionId": "177859660", "utmCampaign": "<не указано>", "url": "http://morozova26.ru/about/", "attrs": "None", "phoneNumber": "78652410211", "uniqTargetCall": "false", "targetCall": "false", "attribution": "1", "utmMedium": "<не указано>", "orders": "[]"}
{"date": "2018-12-06 16:04:24", "callUrl": "None", "city": "stavropol", "uniqueCall": "true", "redirectNumber": "78652482044", "utmContent": "<не указано>", "yaClientId": "None", "source": "(direct)", "medium": "(none)", "callphase": "calldisconnected", "duration": "446", "ref": "http://morozova26.ru/", "additionalTags": "[]", "hostname": "morozova26.ru", "waitingConnect": "10", "ctCallerId": "b63322f4485a8f61dcf24e69ef50d967", "callbackCall": "false", "keyword": "(not set)", "callClientUniqueId": "None", "successful": "true", "order": "None", "callId": "3743155", "utmSource": "<не указано>", "sipCallId": "4bef5708-73fa-1237-3d94-0050569465cc", "clientId": "202851363.1544101225", "callerNumber": "79614821596", "ip": "194.0.145.6/32", "utmTerm": "<не указано>", "userAgent": "Mozilla/5.0 (Windows NT 10.0; Win64; x64) AppleWebKit/537.36 (KHTML, like Gecko) Chrome/52.0.2743.116 Safari/537.36 Edge/15.15063", "sessionId": "177901839", "utmCampaign": "<не указано>", "url": "http://morozova26.ru/apartments/", "attrs": "None", "phoneNumber": "78652979556", "uniqTargetCall": "true", "targetCall": "true", "attribution": "1", "utmMedium": "<не указано>", "orders": "[]"}
{"date": "2018-12-07 17:58:13", "callUrl": "None", "city": "stavropol", "uniqueCall": "true", "redirectNumber": "78652482044", "utmContent": "<не указано>", "yaClientId": "None", "source": "yandex", "medium": "organic", "callphase": "calldisconnected", "duration": "446", "ref": "https://yandex.ru/", "additionalTags": "[]", "hostname": "morozova26.ru", "waitingConnect": "16", "ctCallerId": "23e06187ba7129d9143ec487e990082c", "callbackCall": "false", "keyword": "(not set)", "callClientUniqueId": "None", "successful": "true", "order": "None", "callId": "3769867", "utmSource": "<не указано>", "sipCallId": "5c6d55f7-74d3-1237-3d94-0050569465cc", "clientId": "", "callerNumber": "79283214925", "ip": "195.209.246.220/32", "utmTerm": "<не указано>", "userAgent": "Mozilla/5.0 (Windows NT 6.1; Win64; x64) AppleWebKit/537.36 (KHTML, like Gecko) Chrome/70.0.3538.110 Safari/537.36", "sessionId": "179250767", "utmCampaign": "<не указано>", "url": "http://morozova26.ru/", "attrs": "None", "phoneNumber": "78652979556", "uniqTargetCall": "true", "targetCall": "true", "attribution": "1", "utmMedium": "<не указано>", "orders": "[]"}
{"date": "2018-12-07 18:25:15", "callUrl": "None", "city": "stavropol", "uniqueCall": "true", "redirectNumber": "78652482044", "utmContent": "<не указано>", "yaClientId": "None", "source": "yandex", "medium": "organic", "callphase": "calldisconnected", "duration": "24", "ref": "https://yandex.ru/", "additionalTags": "[]", "hostname": "morozova26.ru", "waitingConnect": "16", "ctCallerId": "d9b2e4d69a765dfe72c09938d5a43b61", "callbackCall": "false", "keyword": "(not set)", "callClientUniqueId": "None", "successful": "true", "order": "None", "callId": "3770385", "utmSource": "<не указано>", "sipCallId": "23a89d49-74d7-1237-3d94-0050569465cc", "clientId": "", "callerNumber": "78652754850", "ip": "195.209.246.220/32", "utmTerm": "<не указано>", "userAgent": "Mozilla/5.0 (Windows NT 6.1; Win64; x64) AppleWebKit/537.36 (KHTML, like Gecko) Chrome/70.0.3538.110 Safari/537.36", "sessionId": "179250767", "utmCampaign": "<не указано>", "url": "http://morozova26.ru/", "attrs": "None", "phoneNumber": "78652979556", "uniqTargetCall": "false", "targetCall": "false", "attribution": "1", "utmMedium": "<не указано>", "orders": "[]"}
{"date": "2018-12-07 18:59:46", "callUrl": "None", "city": "stavropol", "uniqueCall": "false", "redirectNumber": "78652482044", "utmContent": "<не указано>", "yaClientId": "None", "source": "yandex", "medium": "organic", "callphase": "calldisconnected", "duration": "0", "ref": "https://yandex.ru/", "additionalTags": "[]", "hostname": "morozova26.ru", "waitingConnect": "15", "ctCallerId": "d9b2e4d69a765dfe72c09938d5a43b61", "callbackCall": "false", "keyword": "(not set)", "callClientUniqueId": "None", "successful": "false", "order": "None", "callId": "3771057", "utmSource": "<не указано>", "sipCallId": "f611a5a2-74db-1237-3d94-0050569465cc", "clientId": "", "callerNumber": "78652754850", "ip": "195.209.246.220/32", "utmTerm": "<не указано>", "userAgent": "Mozilla/5.0 (Windows NT 6.1; Win64; x64) AppleWebKit/537.36 (KHTML, like Gecko) Chrome/70.0.3538.110 Safari/537.36", "sessionId": "179250767", "utmCampaign": "<не указано>", "url": "http://morozova26.ru/", "attrs": "None", "phoneNumber": "78652979556", "uniqTargetCall": "false", "targetCall": "false", "attribution": "1", "utmMedium": "<не указано>", "orders": "[]"}
{"date": "2018-12-07 19:00:45", "callUrl": "None", "city": "stavropol", "uniqueCall": "false", "redirectNumber": "78652482044", "utmContent": "<не указано>", "yaClientId": "None", "source": "yandex", "medium": "organic", "callphase": "calldisconnected", "duration": "0", "ref": "https://yandex.ru/", "additionalTags": "[]", "hostname": "morozova26.ru", "waitingConnect": "31", "ctCallerId": "d9b2e4d69a765dfe72c09938d5a43b61", "callbackCall": "false", "keyword": "(not set)", "callClientUniqueId": "None", "successful": "false", "order": "None", "callId": "3771074", "utmSource": "<не указано>", "sipCallId": "1921a263-74dc-1237-3d94-0050569465cc", "clientId": "", "callerNumber": "78652754850", "ip": "195.209.246.220/32", "utmTerm": "<не указано>", "userAgent": "Mozilla/5.0 (Windows NT 6.1; Win64; x64) AppleWebKit/537.36 (KHTML, like Gecko) Chrome/70.0.3538.110 Safari/537.36", "sessionId": "179250767", "utmCampaign": "<не указано>", "url": "http://morozova26.ru/", "attrs": "None", "phoneNumber": "78652979556", "uniqTargetCall": "false", "targetCall": "false", "attribution": "1", "utmMedium": "<не указано>", "orders": "[]"}
{"date": "2018-12-08 10:02:57", "callUrl": "None", "city": "stavropol", "uniqueCall": "true", "redirectNumber": "78652482044", "utmContent": "<не заполнено>", "yaClientId": "None", "source": "yandex", "medium": "cpc", "callphase": "calldisconnected", "duration": "10", "ref": "https://yabs.yandex.ru/count/49yS53fteZ850Dm1CLjc2rm00000E0H00aW2OBm8Q09mbh6MiWc00O6ozOu4Y06ngUUeB901b9U5j2YO0UYZxCick07yuj6H5y01NDW1bBJM4U01vj2q4UW1b0680lBpSg02bDA_5TW20l02i-2Yo0tu0l3gyU3nyg-twW600vw8wWk80_EpdP05c0EmcI-W0mYe0mgm0mIu1Fy1w0I9lnBu1DJaSeW5rEHoa0N0XP01e0NcjoAe1RQN7R05jfSTk0N0poJ01S25a0781S3F9E051V050PW6Y9wEVg06IAW6ICa6BB-LPwxSNL7H1WaIsXkgFo8PsGO000201W000Aa7RnGOcHn7J6Mm1u20c3JG1mBW1uOAyGUTM1w6tlGACe081D08X8A0WO2GW0BW28hftmg02W712W0000000F0_s0e2u0g0YNhu2i3y5QeB4ByYTJPl5000diILydny1G3P2syK69aSHqnbw0lKv7Bm2mQ83Aw_thu1w0mVu0q3YGvtlfyQBztWFv0Em8Gzc0wi_jQyvfNthb6W3i24FR0E0TWE0g4FUnIkH-5wz3_P3m0000000F0_u0y1W12dkQSFa12MlFBbvl60rNQQ40aH00000000y3_84080?q=жк барин ставрополь купить квартиру", "additionalTags": "[]", "hostname": "promo.morozova26.ru", "waitingConnect": "15", "ctCallerId": "827c77dc3616451b2e7b4e6ffe31b371", "callbackCall": "false", "keyword": "<не заполнено>", "callClientUniqueId": "None", "successful": "true", "order": "None", "callId": "3775327", "utmSource": "yandex", "sipCallId": "21ee7686-755a-1237-3d94-0050569465cc", "clientId": "", "callerNumber": "79614433538", "ip": "81.177.249.16/32", "utmTerm": "<не заполнено>", "userAgent": "Mozilla/5.0 (Windows NT 10.0; WOW64) AppleWebKit/537.36 (KHTML, like Gecko) Chrome/69.0.3497.100 Safari/537.36 OPR/56.0.3051.116 (Edition Yx)", "sessionId": "179773162", "utmCampaign": "konkurenti", "url": "http://promo.morozova26.ru/?utm_source=yandex&utm_medium=cpc&utm_campaign=konkurenti", "attrs": "None", "phoneNumber": "78652979542", "uniqTargetCall": "false", "targetCall": "false", "attribution": "1", "utmMedium": "cpc", "orders": "[]"}
{"date": "2018-12-08 10:03:32", "callUrl": "None", "city": "stavropol", "uniqueCall": "false", "redirectNumber": "78652482044", "utmContent": "<не заполнено>", "yaClientId": "None", "source": "yandex", "medium": "cpc", "callphase": "calldisconnected", "duration": "41", "ref": "https://yabs.yandex.ru/count/49yS53fteZ850Dm1CLjc2rm00000E0H00aW2OBm8Q09mbh6MiWc00O6ozOu4Y06ngUUeB901b9U5j2YO0UYZxCick07yuj6H5y01NDW1bBJM4U01vj2q4UW1b0680lBpSg02bDA_5TW20l02i-2Yo0tu0l3gyU3nyg-twW600vw8wWk80_EpdP05c0EmcI-W0mYe0mgm0mIu1Fy1w0I9lnBu1DJaSeW5rEHoa0N0XP01e0NcjoAe1RQN7R05jfSTk0N0poJ01S25a0781S3F9E051V050PW6Y9wEVg06IAW6ICa6BB-LPwxSNL7H1WaIsXkgFo8PsGO000201W000Aa7RnGOcHn7J6Mm1u20c3JG1mBW1uOAyGUTM1w6tlGACe081D08X8A0WO2GW0BW28hftmg02W712W0000000F0_s0e2u0g0YNhu2i3y5QeB4ByYTJPl5000diILydny1G3P2syK69aSHqnbw0lKv7Bm2mQ83Aw_thu1w0mVu0q3YGvtlfyQBztWFv0Em8Gzc0wi_jQyvfNthb6W3i24FR0E0TWE0g4FUnIkH-5wz3_P3m0000000F0_u0y1W12dkQSFa12MlFBbvl60rNQQ40aH00000000y3_84080?q=жк барин ставрополь купить квартиру", "additionalTags": "[]", "hostname": "promo.morozova26.ru", "waitingConnect": "12", "ctCallerId": "827c77dc3616451b2e7b4e6ffe31b371", "callbackCall": "false", "keyword": "<не заполнено>", "callClientUniqueId": "None", "successful": "true", "order": "None", "callId": "3775337", "utmSource": "yandex", "sipCallId": "373429c4-755a-1237-3d94-0050569465cc", "clientId": "", "callerNumber": "79614433538", "ip": "81.177.249.16/32", "utmTerm": "<не заполнено>", "userAgent": "Mozilla/5.0 (Windows NT 10.0; WOW64) AppleWebKit/537.36 (KHTML, like Gecko) Chrome/69.0.3497.100 Safari/537.36 OPR/56.0.3051.116 (Edition Yx)", "sessionId": "179773162", "utmCampaign": "konkurenti", "url": "http://promo.morozova26.ru/?utm_source=yandex&utm_medium=cpc&utm_campaign=konkurenti", "attrs": "None", "phoneNumber": "78652979542", "uniqTargetCall": "true", "targetCall": "true", "attribution": "1", "utmMedium": "cpc", "orders": "[]"}
{"date": "2018-12-08 10:16:02", "callUrl": "None", "city": "stavropol", "uniqueCall": "false", "redirectNumber": "78652482044", "utmContent": "<не заполнено>", "yaClientId": "None", "source": "yandex", "medium": "cpc", "callphase": "calldisconnected", "duration": "0", "ref": "https://yabs.yandex.ru/count/49yS53fteZ850Dm1CLjc2rm00000E0H00aW2OBm8Q09mbh6MiWc00O6ozOu4Y06ngUUeB901b9U5j2YO0UYZxCick07yuj6H5y01NDW1bBJM4U01vj2q4UW1b0680lBpSg02bDA_5TW20l02i-2Yo0tu0l3gyU3nyg-twW600vw8wWk80_EpdP05c0EmcI-W0mYe0mgm0mIu1Fy1w0I9lnBu1DJaSeW5rEHoa0N0XP01e0NcjoAe1RQN7R05jfSTk0N0poJ01S25a0781S3F9E051V050PW6Y9wEVg06IAW6ICa6BB-LPwxSNL7H1WaIsXkgFo8PsGO000201W000Aa7RnGOcHn7J6Mm1u20c3JG1mBW1uOAyGUTM1w6tlGACe081D08X8A0WO2GW0BW28hftmg02W712W0000000F0_s0e2u0g0YNhu2i3y5QeB4ByYTJPl5000diILydny1G3P2syK69aSHqnbw0lKv7Bm2mQ83Aw_thu1w0mVu0q3YGvtlfyQBztWFv0Em8Gzc0wi_jQyvfNthb6W3i24FR0E0TWE0g4FUnIkH-5wz3_P3m0000000F0_u0y1W12dkQSFa12MlFBbvl60rNQQ40aH00000000y3_84080?q=жк барин ставрополь купить квартиру", "additionalTags": "[]", "hostname": "promo.morozova26.ru", "waitingConnect": "27", "ctCallerId": "827c77dc3616451b2e7b4e6ffe31b371", "callbackCall": "false", "keyword": "<не заполнено>", "callClientUniqueId": "None", "successful": "false", "order": "None", "callId": "3775640", "utmSource": "yandex", "sipCallId": "f6033bdb-755b-1237-3d94-0050569465cc", "clientId": "", "callerNumber": "79614433538", "ip": "81.177.249.16/32", "utmTerm": "<не заполнено>", "userAgent": "Mozilla/5.0 (Windows NT 10.0; WOW64) AppleWebKit/537.36 (KHTML, like Gecko) Chrome/69.0.3497.100 Safari/537.36 OPR/56.0.3051.116 (Edition Yx)", "sessionId": "179773162", "utmCampaign": "konkurenti", "url": "http://promo.morozova26.ru/?utm_source=yandex&utm_medium=cpc&utm_campaign=konkurenti", "attrs": "None", "phoneNumber": "78652979542", "uniqTargetCall": "false", "targetCall": "false", "attribution": "1", "utmMedium": "cpc", "orders": "[]"}
{"date": "2018-12-08 11:00:25", "callUrl": "None", "city": "stavropol", "uniqueCall": "false", "redirectNumber": "78652482044", "utmContent": "<не заполнено>", "yaClientId": "None", "source": "yandex", "medium": "cpc", "callphase": "calldisconnected", "duration": "0", "ref": "https://yabs.yandex.ru/count/49yS53fteZ850Dm1CLjc2rm00000E0H00aW2OBm8Q09mbh6MiWc00O6ozOu4Y06ngUUeB901b9U5j2YO0UYZxCick07yuj6H5y01NDW1bBJM4U01vj2q4UW1b0680lBpSg02bDA_5TW20l02i-2Yo0tu0l3gyU3nyg-twW600vw8wWk80_EpdP05c0EmcI-W0mYe0mgm0mIu1Fy1w0I9lnBu1DJaSeW5rEHoa0N0XP01e0NcjoAe1RQN7R05jfSTk0N0poJ01S25a0781S3F9E051V050PW6Y9wEVg06IAW6ICa6BB-LPwxSNL7H1WaIsXkgFo8PsGO000201W000Aa7RnGOcHn7J6Mm1u20c3JG1mBW1uOAyGUTM1w6tlGACe081D08X8A0WO2GW0BW28hftmg02W712W0000000F0_s0e2u0g0YNhu2i3y5QeB4ByYTJPl5000diILydny1G3P2syK69aSHqnbw0lKv7Bm2mQ83Aw_thu1w0mVu0q3YGvtlfyQBztWFv0Em8Gzc0wi_jQyvfNthb6W3i24FR0E0TWE0g4FUnIkH-5wz3_P3m0000000F0_u0y1W12dkQSFa12MlFBbvl60rNQQ40aH00000000y3_84080?q=жк барин ставрополь купить квартиру", "additionalTags": "[]", "hostname": "promo.morozova26.ru", "waitingConnect": "31", "ctCallerId": "827c77dc3616451b2e7b4e6ffe31b371", "callbackCall": "false", "keyword": "<не заполнено>", "callClientUniqueId": "None", "successful": "false", "order": "None", "callId": "3776862", "utmSource": "yandex", "sipCallId": "292a2284-7562-1237-3d94-0050569465cc", "clientId": "", "callerNumber": "79614433538", "ip": "81.177.249.16/32", "utmTerm": "<не заполнено>", "userAgent": "Mozilla/5.0 (Windows NT 10.0; WOW64) AppleWebKit/537.36 (KHTML, like Gecko) Chrome/69.0.3497.100 Safari/537.36 OPR/56.0.3051.116 (Edition Yx)", "sessionId": "179773162", "utmCampaign": "konkurenti", "url": "http://promo.morozova26.ru/?utm_source=yandex&utm_medium=cpc&utm_campaign=konkurenti", "attrs": "None", "phoneNumber": "78652979542", "uniqTargetCall": "false", "targetCall": "false", "attribution": "1", "utmMedium": "cpc", "orders": "[]"}
{"date": "2018-12-08 11:20:21", "callUrl": "None", "city": "stavropol", "uniqueCall": "false", "redirectNumber": "78652482044", "utmContent": "<не заполнено>", "yaClientId": "None", "source": "yandex", "medium": "cpc", "callphase": "calldisconnected", "duration": "556", "ref": "https://yabs.yandex.ru/count/49yS53fteZ850Dm1CLjc2rm00000E0H00aW2OBm8Q09mbh6MiWc00O6ozOu4Y06ngUUeB901b9U5j2YO0UYZxCick07yuj6H5y01NDW1bBJM4U01vj2q4UW1b0680lBpSg02bDA_5TW20l02i-2Yo0tu0l3gyU3nyg-twW600vw8wWk80_EpdP05c0EmcI-W0mYe0mgm0mIu1Fy1w0I9lnBu1DJaSeW5rEHoa0N0XP01e0NcjoAe1RQN7R05jfSTk0N0poJ01S25a0781S3F9E051V050PW6Y9wEVg06IAW6ICa6BB-LPwxSNL7H1WaIsXkgFo8PsGO000201W000Aa7RnGOcHn7J6Mm1u20c3JG1mBW1uOAyGUTM1w6tlGACe081D08X8A0WO2GW0BW28hftmg02W712W0000000F0_s0e2u0g0YNhu2i3y5QeB4ByYTJPl5000diILydny1G3P2syK69aSHqnbw0lKv7Bm2mQ83Aw_thu1w0mVu0q3YGvtlfyQBztWFv0Em8Gzc0wi_jQyvfNthb6W3i24FR0E0TWE0g4FUnIkH-5wz3_P3m0000000F0_u0y1W12dkQSFa12MlFBbvl60rNQQ40aH00000000y3_84080?q=жк барин ставрополь купить квартиру", "additionalTags": "[]", "hostname": "promo.morozova26.ru", "waitingConnect": "19", "ctCallerId": "827c77dc3616451b2e7b4e6ffe31b371", "callbackCall": "false", "keyword": "<не заполнено>", "callClientUniqueId": "None", "successful": "true", "order": "None", "callId": "3777516", "utmSource": "yandex", "sipCallId": "f20dbb48-7564-1237-3d94-0050569465cc", "clientId": "", "callerNumber": "79614433538", "ip": "81.177.249.16/32", "utmTerm": "<не заполнено>", "userAgent": "Mozilla/5.0 (Windows NT 10.0; WOW64) AppleWebKit/537.36 (KHTML, like Gecko) Chrome/69.0.3497.100 Safari/537.36 OPR/56.0.3051.116 (Edition Yx)", "sessionId": "179773162", "utmCampaign": "konkurenti", "url": "http://promo.morozova26.ru/?utm_source=yandex&utm_medium=cpc&utm_campaign=konkurenti", "attrs": "None", "phoneNumber": "78652979542", "uniqTargetCall": "false", "targetCall": "true", "attribution": "1", "utmMedium": "cpc", "orders": "[]"}
{"date": "2018-12-10 13:22:31", "callUrl": "None", "city": "moscow", "uniqueCall": "true", "redirectNumber": "78652482044", "utmContent": "<не указано>", "yaClientId": "None", "source": "yandex", "medium": "organic", "callphase": "calldisconnected", "duration": "18", "ref": "https://yandex.ru/clck/jsredir?bu=el7z&from=yandex.ru;search/;web;;&text=&etext=1996.oVILO2vwbCe21XFkRzVDxDO6Ax_JRcaubhvc2bBZy5ZMzbAhfHMS98D4kn6eUmC975EVlw9SGfNVgDz30R9aiwYqACOBGRwjzzx_F3cn52I.822d91bfb9854cf2c3c348cd2d95e500355f01ca&uuid=&state=PEtFfuTeVD5kpHnK9lio9T6U0-imFY5IWwl6BSUGTYm9ZV915H4XEUO-TlDL8zu0ViXmd4I-XZ85yoJ9unWnfa-CbFEZsaV15jBxLw1ROk6QuYT5Br74iIFsuTDzX_tCkvg8-Io7JEI,&cst=AiuY0DBWFJ5fN_r-AEszkzxggOvQ1nh1EB3ZcJlyOOOBcwTEK-kJUaTxiJGo5Zq3Rvoo2INn1FvHzz6E05f0MnmjSPWAiysqInTPijHDhohNU5Bw047xgq2nS7fqxG6dls1Btid_YOvUvikeCV7L08CP56bUqNpdc-v063KsrNmpDZblbdBHxYsVnp0m_sGS2tVevq4A0loO4LTSY7h4KqJ3vYhjZOW1lvOC1azowmzQa9mwB1jBU-t_l8TfPk-92y_8Ojc4uk8G0wI-0DdO8IXEENyuCVHZJWf-lIHfzOkKzUsPsWlzslpe-3sSx_wbsNiA7HaEwTXLVlvsEtLtMlWRRmN2S6E8IkWNntwWuSRPUb9-UwNfIU0foICoWoaYhgt9eB8TB-V47G_YoVtWHDtFqJN-V5lc2K8IsGXnjUKBfxjtXwexu8aKN_8Pifz0xN-P8o-qxW8zGDnbm_6Rx1SeNe8dk9uqtQVfPpBHa9NLNj5TxEBNrmRhWZHmspsU28A_q3hogmcgGdGrw-TxK3v6adsHW2jHXGqgW550UCjP6VxkZOH0aTp1jvHh52vPJGih9h4fqmOoFfrXRsPj9E99us_tqFeNN", "additionalTags": "[]", "hostname": "morozova26.ru", "waitingConnect": "20", "ctCallerId": "1968e20bac9a7d194743e19d66572bdc", "callbackCall": "false", "keyword": "<не заполнено>", "callClientUniqueId": "None", "successful": "true", "order": "None", "callId": "3815792", "utmSource": "<не указано>", "sipCallId": "57ca1ae7-7708-1237-3d94-0050569465cc", "clientId": "1331854348.1544373223", "callerNumber": "79624420135", "ip": "188.170.196.250/32", "utmTerm": "<не указано>", "userAgent": "Mozilla/5.0 (iPhone; CPU iPhone OS 12_1_1 like Mac OS X) AppleWebKit/605.1.15 (KHTML, like Gecko) Version/12.0 Mobile/15E148 Safari/604.1", "sessionId": "181368266", "utmCampaign": "<не указано>", "url": "http://morozova26.ru/", "attrs": "None", "phoneNumber": "78652979542", "uniqTargetCall": "false", "targetCall": "false", "attribution": "1", "utmMedium": "<не указано>", "orders": "[]"}
{"date": "2018-12-10 13:32:30", "callUrl": "None", "city": "sochi", "uniqueCall": "true", "redirectNumber": "78652482044", "utmContent": "<не заполнено>", "yaClientId": "None", "source": "adwords", "medium": "cpc", "callphase": "calldisconnected", "duration": "32", "ref": "https://www.google.ru/", "additionalTags": "[]", "hostname": "morozova26.ru", "waitingConnect": "10", "ctCallerId": "cbd29c5727ddc257eaedd0e2af0f5cd0", "callbackCall": "false", "keyword": "жк усадьба ставрополь", "callClientUniqueId": "None", "successful": "true", "order": "None", "callId": "3816242", "utmSource": "adwords", "sipCallId": "bcf5e007-7709-1237-3d94-0050569465cc", "clientId": "", "callerNumber": "79624459334", "ip": "178.34.161.227/32", "utmTerm": "жк усадьба ставрополь", "userAgent": "Mozilla/5.0 (iPad; CPU OS 12_1 like Mac OS X) AppleWebKit/605.1.15 (KHTML, like Gecko) Version/12.0 Mobile/15E148 Safari/604.1", "sessionId": "182178655", "utmCampaign": "{campaign_id}", "url": "http://www.morozova26.ru/service/?utm_source=adwords&utm_medium=cpc&utm_campaign={campaign_id}&utm_term=жк усадьба ставрополь&utm_banner={banner_id}&utm_phrase={phrase_id}", "attrs": "None", "phoneNumber": "78652979554", "uniqTargetCall": "true", "targetCall": "true", "attribution": "1", "utmMedium": "cpc", "orders": "[]"}
{"date": "2018-12-10 16:24:44", "callUrl": "None", "city": "jug", "uniqueCall": "true", "redirectNumber": "78652410211", "utmContent": "<не указано>", "yaClientId": "None", "source": "google", "medium": "organic", "callphase": "calldisconnected", "duration": "0", "ref": "http://www.google.com/", "additionalTags": "[]", "hostname": "morozova26.ru", "waitingConnect": "13", "ctCallerId": "2123741a7999cbbd4c72a7f4cea5808f", "callbackCall": "true", "keyword": "(not provided)", "callClientUniqueId": "None", "successful": "false", "order": "None", "callId": "3823302", "utmSource": "<не указано>", "sipCallId": "None", "clientId": "", "callerNumber": "79280100565", "ip": "185.3.35.253/32", "utmTerm": "<не указано>", "userAgent": "Mozilla/5.0 (Linux; Android 7.0; SM-J530FM Build/NRD90M) AppleWebKit/537.36 (KHTML, like Gecko) Chrome/69.0.3497.100 Mobile Safari/537.36", "sessionId": "182432340", "utmCampaign": "<не указано>", "url": "http://morozova26.ru/about/", "attrs": "None", "phoneNumber": "78652410211", "uniqTargetCall": "false", "targetCall": "false", "attribution": "1", "utmMedium": "<не указано>", "orders": "[]"}
{"date": "2018-12-11 14:44:42", "callUrl": "None", "city": "stavropol", "uniqueCall": "true", "redirectNumber": "78652482044", "utmContent": "<не указано>", "yaClientId": "None", "source": "google", "medium": "organic", "callphase": "calldisconnected", "duration": "11", "ref": "http://www.google.com/", "additionalTags": "[]", "hostname": "morozova26.ru", "waitingConnect": "20", "ctCallerId": "4fce4192660e6cccfad0f0f378a384d2", "callbackCall": "false", "keyword": "(not provided)", "callClientUniqueId": "None", "successful": "true", "order": "None", "callId": "3847435", "utmSource": "<не указано>", "sipCallId": "fd51e96c-77dc-1237-3d94-0050569465cc", "clientId": "133255732.1544356184", "callerNumber": "79097635890", "ip": "85.115.248.74/32", "utmTerm": "<не указано>", "userAgent": "Mozilla/5.0 (Linux; Android 7.1.2; Redmi 4X) AppleWebKit/537.36 (KHTML, like Gecko) Chrome/71.0.3578.83 Mobile Safari/537.36", "sessionId": "183578600", "utmCampaign": "<не указано>", "url": "http://morozova26.ru/about/", "attrs": "None", "phoneNumber": "78652979554", "uniqTargetCall": "false", "targetCall": "false", "attribution": "1", "utmMedium": "<не указано>", "orders": "[]"}
{"date": "2018-12-12 09:03:16", "callUrl": "None", "city": "stavropol", "uniqueCall": "true", "redirectNumber": "78652482044", "utmContent": "<не указано>", "yaClientId": "None", "source": "(direct)", "medium": "(none)", "callphase": "calldisconnected", "duration": "0", "ref": "http://morozova26.ru/", "additionalTags": "[]", "hostname": "morozova26.ru", "waitingConnect": "32", "ctCallerId": "f3537c0b2d48c1c77827db094d841313", "callbackCall": "false", "keyword": "(not set)", "callClientUniqueId": "None", "successful": "false", "order": "None", "callId": "3859156", "utmSource": "<не указано>", "sipCallId": "7571d3f7-7876-1237-3d94-0050569465cc", "clientId": "594756889.1463639591", "callerNumber": "79624041781", "ip": "194.8.128.222/32", "utmTerm": "<не указано>", "userAgent": "Mozilla/5.0 (Windows NT 6.1) AppleWebKit/537.36 (KHTML, like Gecko) Chrome/70.0.3538.110 Safari/537.36", "sessionId": "184429618", "utmCampaign": "<не указано>", "url": "http://morozova26.ru/", "attrs": "None", "phoneNumber": "78652979542", "uniqTargetCall": "false", "targetCall": "false", "attribution": "1", "utmMedium": "<не указано>", "orders": "[]"}
{"date": "2018-12-12 18:10:03", "callUrl": "None", "city": "stavropol", "uniqueCall": "true", "redirectNumber": "78652410211", "utmContent": "<не заполнено>", "yaClientId": "None", "source": "yandex", "medium": "cpc", "callphase": "calldisconnected", "duration": "178", "ref": "", "additionalTags": "[]", "hostname": "promo.morozova26.ru", "waitingConnect": "None", "ctCallerId": "89192013f32366b7676160211d9e1bbc", "callbackCall": "true", "keyword": "<не заполнено>", "callClientUniqueId": "None", "successful": "true", "order": "None", "callId": "3879495", "utmSource": "yandex", "sipCallId": "None", "clientId": "", "callerNumber": "79188025694", "ip": "82.119.135.118/32", "utmTerm": "<не заполнено>", "userAgent": "Mozilla/5.0 (X11; Linux x86_64) AppleWebKit/537.36 (KHTML, like Gecko) Chrome/70.0.3538.110 Safari/537.36", "sessionId": "185106524", "utmCampaign": "rsya", "url": "http://promo.morozova26.ru/?utm_source=yandex&utm_medium=cpc&utm_campaign=rsya", "attrs": "None", "phoneNumber": "78652410211", "uniqTargetCall": "true", "targetCall": "true", "attribution": "1", "utmMedium": "cpc", "orders": "[]"}
{"date": "2018-12-13 12:45:52", "callUrl": "None", "city": "stavropol", "uniqueCall": "true", "redirectNumber": "78652482044", "utmContent": "<не указано>", "yaClientId": "None", "source": "google", "medium": "organic", "callphase": "calldisconnected", "duration": "0", "ref": "https://www.google.ru/", "additionalTags": "[]", "hostname": "morozova26.ru", "waitingConnect": "34", "ctCallerId": "6604a51b0720395436f175af2c76fc60", "callbackCall": "false", "keyword": "(not provided)", "callClientUniqueId": "None", "successful": "false", "order": "None", "callId": "3892644", "utmSource": "<не указано>", "sipCallId": "b85b281b-795e-1237-3d94-0050569465cc", "clientId": "None", "callerNumber": "78652951671", "ip": "178.237.177.218/32", "utmTerm": "<не указано>", "userAgent": "None", "sessionId": "183369707", "utmCampaign": "<не указано>", "url": "http://morozova26.ru/", "attrs": "None", "phoneNumber": "78652979542", "uniqTargetCall": "false", "targetCall": "false", "attribution": "1", "utmMedium": "<не указано>", "orders": "[]"}
{"date": "2018-12-13 14:48:12", "callUrl": "None", "city": "jug", "uniqueCall": "true", "redirectNumber": "78652482044", "utmContent": "<не указано>", "yaClientId": "None", "source": "yandex", "medium": "organic", "callphase": "calldisconnected", "duration": "0", "ref": "https://yandex.ru/", "additionalTags": "[]", "hostname": "morozova26.ru", "waitingConnect": "31", "ctCallerId": "13d9a4c2d96627e587fd4b6a3e8b6849", "callbackCall": "false", "keyword": "(not set)", "callClientUniqueId": "None", "successful": "false", "order": "None", "callId": "3897078", "utmSource": "<не указано>", "sipCallId": "cf463a7a-796f-1237-3d94-0050569465cc", "clientId": "759700403.1544701255", "callerNumber": "79187999100", "ip": "95.153.129.239/32", "utmTerm": "<не указано>", "userAgent": "Mozilla/5.0 (iPhone; CPU iPhone OS 12_1 like Mac OS X) AppleWebKit/605.1.15 (KHTML, like Gecko) CriOS/70.0.3538.75 Mobile/15E148 Safari/605.1", "sessionId": "186631956", "utmCampaign": "<не указано>", "url": "http://morozova26.ru/", "attrs": "None", "phoneNumber": "78652979542", "uniqTargetCall": "false", "targetCall": "false", "attribution": "1", "utmMedium": "<не указано>", "orders": "[]"}
{"date": "2018-12-13 14:51:58", "callUrl": "None", "city": "jug", "uniqueCall": "false", "redirectNumber": "78652482044", "utmContent": "<не указано>", "yaClientId": "None", "source": "yandex", "medium": "organic", "callphase": "calldisconnected", "duration": "27", "ref": "https://yandex.ru/", "additionalTags": "[]", "hostname": "morozova26.ru", "waitingConnect": "16", "ctCallerId": "13d9a4c2d96627e587fd4b6a3e8b6849", "callbackCall": "false", "keyword": "(not set)", "callClientUniqueId": "None", "successful": "true", "order": "None", "callId": "3897210", "utmSource": "<не указано>", "sipCallId": "56816705-7970-1237-3d94-0050569465cc", "clientId": "759700403.1544701255", "callerNumber": "79187999100", "ip": "95.153.129.239/32", "utmTerm": "<не указано>", "userAgent": "Mozilla/5.0 (iPhone; CPU iPhone OS 12_1 like Mac OS X) AppleWebKit/605.1.15 (KHTML, like Gecko) CriOS/70.0.3538.75 Mobile/15E148 Safari/605.1", "sessionId": "186631956", "utmCampaign": "<не указано>", "url": "http://morozova26.ru/", "attrs": "None", "phoneNumber": "78652979542", "uniqTargetCall": "false", "targetCall": "false", "attribution": "1", "utmMedium": "<не указано>", "orders": "[]"}
{"date": "2018-12-13 14:54:41", "callUrl": "None", "city": "jug", "uniqueCall": "false", "redirectNumber": "78652482044", "utmContent": "<не указано>", "yaClientId": "None", "source": "yandex", "medium": "organic", "callphase": "calldisconnected", "duration": "46", "ref": "https://yandex.ru/", "additionalTags": "[]", "hostname": "morozova26.ru", "waitingConnect": "14", "ctCallerId": "13d9a4c2d96627e587fd4b6a3e8b6849", "callbackCall": "false", "keyword": "(not set)", "callClientUniqueId": "None", "successful": "true", "order": "None", "callId": "3897317", "utmSource": "<не указано>", "sipCallId": "b7813a0f-7970-1237-3d94-0050569465cc", "clientId": "759700403.1544701255", "callerNumber": "79187999100", "ip": "95.153.129.239/32", "utmTerm": "<не указано>", "userAgent": "Mozilla/5.0 (iPhone; CPU iPhone OS 12_1 like Mac OS X) AppleWebKit/605.1.15 (KHTML, like Gecko) CriOS/70.0.3538.75 Mobile/15E148 Safari/605.1", "sessionId": "186631956", "utmCampaign": "<не указано>", "url": "http://morozova26.ru/", "attrs": "None", "phoneNumber": "78652979542", "uniqTargetCall": "true", "targetCall": "true", "attribution": "1", "utmMedium": "<не указано>", "orders": "[]"}
{"date": "2018-12-13 15:10:26", "callUrl": "None", "city": "jug", "uniqueCall": "false", "redirectNumber": "78652482044", "utmContent": "<не указано>", "yaClientId": "None", "source": "yandex", "medium": "organic", "callphase": "calldisconnected", "duration": "0", "ref": "https://yandex.ru/", "additionalTags": "[]", "hostname": "morozova26.ru", "waitingConnect": "12", "ctCallerId": "13d9a4c2d96627e587fd4b6a3e8b6849", "callbackCall": "false", "keyword": "(not set)", "callClientUniqueId": "None", "successful": "false", "order": "None", "callId": "3897956", "utmSource": "<не указано>", "sipCallId": "eaa97a27-7972-1237-3d94-0050569465cc", "clientId": "759700403.1544701255", "callerNumber": "79187999100", "ip": "95.153.129.239/32", "utmTerm": "<не указано>", "userAgent": "Mozilla/5.0 (iPhone; CPU iPhone OS 12_1 like Mac OS X) AppleWebKit/605.1.15 (KHTML, like Gecko) CriOS/70.0.3538.75 Mobile/15E148 Safari/605.1", "sessionId": "186631956", "utmCampaign": "<не указано>", "url": "http://morozova26.ru/", "attrs": "None", "phoneNumber": "78652979542", "uniqTargetCall": "false", "targetCall": "false", "attribution": "1", "utmMedium": "<не указано>", "orders": "[]"}
{"date": "2018-12-13 15:10:49", "callUrl": "None", "city": "jug", "uniqueCall": "false", "redirectNumber": "78652482044", "utmContent": "<не указано>", "yaClientId": "None", "source": "yandex", "medium": "organic", "callphase": "calldisconnected", "duration": "0", "ref": "https://yandex.ru/", "additionalTags": "[]", "hostname": "morozova26.ru", "waitingConnect": "12", "ctCallerId": "13d9a4c2d96627e587fd4b6a3e8b6849", "callbackCall": "false", "keyword": "(not set)", "callClientUniqueId": "None", "successful": "false", "order": "None", "callId": "3897976", "utmSource": "<не указано>", "sipCallId": "f8247b46-7972-1237-3d94-0050569465cc", "clientId": "759700403.1544701255", "callerNumber": "79187999100", "ip": "95.153.129.239/32", "utmTerm": "<не указано>", "userAgent": "Mozilla/5.0 (iPhone; CPU iPhone OS 12_1 like Mac OS X) AppleWebKit/605.1.15 (KHTML, like Gecko) CriOS/70.0.3538.75 Mobile/15E148 Safari/605.1", "sessionId": "186631956", "utmCampaign": "<не указано>", "url": "http://morozova26.ru/", "attrs": "None", "phoneNumber": "78652979542", "uniqTargetCall": "false", "targetCall": "false", "attribution": "1", "utmMedium": "<не указано>", "orders": "[]"}
{"date": "2018-12-13 15:11:40", "callUrl": "None", "city": "jug", "uniqueCall": "false", "redirectNumber": "78652482044", "utmContent": "<не указано>", "yaClientId": "None", "source": "yandex", "medium": "organic", "callphase": "calldisconnected", "duration": "0", "ref": "https://yandex.ru/", "additionalTags": "[]", "hostname": "morozova26.ru", "waitingConnect": "12", "ctCallerId": "13d9a4c2d96627e587fd4b6a3e8b6849", "callbackCall": "false", "keyword": "(not set)", "callClientUniqueId": "None", "successful": "false", "order": "None", "callId": "3898014", "utmSource": "<не указано>", "sipCallId": "1713c3e9-7973-1237-3d94-0050569465cc", "clientId": "759700403.1544701255", "callerNumber": "79187999100", "ip": "95.153.129.239/32", "utmTerm": "<не указано>", "userAgent": "Mozilla/5.0 (iPhone; CPU iPhone OS 12_1 like Mac OS X) AppleWebKit/605.1.15 (KHTML, like Gecko) CriOS/70.0.3538.75 Mobile/15E148 Safari/605.1", "sessionId": "186631956", "utmCampaign": "<не указано>", "url": "http://morozova26.ru/", "attrs": "None", "phoneNumber": "78652979542", "uniqTargetCall": "false", "targetCall": "false", "attribution": "1", "utmMedium": "<не указано>", "orders": "[]"}
{"date": "2018-12-13 17:14:20", "callUrl": "None", "city": "moscow", "uniqueCall": "true", "redirectNumber": "78652482044", "utmContent": "<не заполнено>", "yaClientId": "None", "source": "cian", "medium": "kartochka_cian", "callphase": "calldisconnected", "duration": "0", "ref": "", "additionalTags": "[]", "hostname": "morozova26.ru", "waitingConnect": "33", "ctCallerId": "c4bcc15aef648dfc6ca6ca32b8916f39", "callbackCall": "false", "keyword": "<не заполнено>", "callClientUniqueId": "None", "successful": "false", "order": "None", "callId": "3902073", "utmSource": "cian", "sipCallId": "39c1bb2a-7984-1237-3d94-0050569465cc", "clientId": "", "callerNumber": "79283095599", "ip": "77.41.156.210/32", "utmTerm": "<не заполнено>", "userAgent": "Mozilla/5.0 (Windows NT 10.0; Win64; x64) AppleWebKit/537.36 (KHTML, like Gecko) Chrome/69.0.3497.100 Safari/537.36 OPR/56.0.3051.116", "sessionId": "186826128", "utmCampaign": "41136", "url": "http://morozova26.ru/?utm_source=cian&utm_medium=kartochka_cian&utm_campaign=41136", "attrs": "None", "phoneNumber": "78652979554", "uniqTargetCall": "false", "targetCall": "false", "attribution": "1", "utmMedium": "kartochka_cian", "orders": "[]"}
{"date": "2018-12-13 17:21:15", "callUrl": "None", "city": "moscow", "uniqueCall": "false", "redirectNumber": "78652410211", "utmContent": "<не заполнено>", "yaClientId": "None", "source": "cian", "medium": "kartochka_cian", "callphase": "calldisconnected", "duration": "0", "ref": "", "additionalTags": "[]", "hostname": "morozova26.ru", "waitingConnect": "None", "ctCallerId": "c4bcc15aef648dfc6ca6ca32b8916f39", "callbackCall": "true", "keyword": "<не заполнено>", "callClientUniqueId": "None", "successful": "false", "order": "None", "callId": "3902265", "utmSource": "cian", "sipCallId": "None", "clientId": "", "callerNumber": "79283095599", "ip": "77.41.156.210/32", "utmTerm": "<не заполнено>", "userAgent": "Mozilla/5.0 (Windows NT 10.0; Win64; x64) AppleWebKit/537.36 (KHTML, like Gecko) Chrome/69.0.3497.100 Safari/537.36 OPR/56.0.3051.116", "sessionId": "186826128", "utmCampaign": "41136", "url": "http://morozova26.ru/?utm_source=cian&utm_medium=kartochka_cian&utm_campaign=41136", "attrs": "None", "phoneNumber": "78652410211", "uniqTargetCall": "false", "targetCall": "false", "attribution": "1", "utmMedium": "kartochka_cian", "orders": "[]"}
{"date": "2018-12-13 17:38:45", "callUrl": "None", "city": "stavropol", "uniqueCall": "true", "redirectNumber": "78652482044", "utmContent": "<не указано>", "yaClientId": "None", "source": "yandex", "medium": "organic", "callphase": "calldisconnected", "duration": "241", "ref": "https://yandex.ru/", "additionalTags": "[]", "hostname": "morozova26.ru", "waitingConnect": "14", "ctCallerId": "eac7ed062846594516a29b21f230a1a8", "callbackCall": "false", "keyword": "(not set)", "callClientUniqueId": "None", "successful": "true", "order": "None", "callId": "3902716", "utmSource": "<не указано>", "sipCallId": "a31ebcb4-7987-1237-3d94-0050569465cc", "clientId": "", "callerNumber": "79283215228", "ip": "78.106.89.245/32", "utmTerm": "<не указано>", "userAgent": "Mozilla/5.0 (Windows NT 10.0; WOW64) AppleWebKit/537.36 (KHTML, like Gecko) Chrome/69.0.3497.100 YaBrowser/18.10.0.2724 Yowser/2.5 Safari/537.36", "sessionId": "186856750", "utmCampaign": "<не указано>", "url": "http://morozova26.ru/", "attrs": "None", "phoneNumber": "78652979554", "uniqTargetCall": "true", "targetCall": "true", "attribution": "1", "utmMedium": "<не указано>", "orders": "[]"}
{"date": "2018-12-14 09:08:07", "callUrl": "None", "city": "stavropol", "uniqueCall": "true", "redirectNumber": "78652482044", "utmContent": "<не указано>", "yaClientId": "None", "source": "google", "medium": "organic", "callphase": "calldisconnected", "duration": "0", "ref": "https://www.google.com/", "additionalTags": "[]", "hostname": "morozova26.ru", "waitingConnect": "31", "ctCallerId": "a56aef1e6f5e934a1d4ebb72eeee7bd0", "callbackCall": "false", "keyword": "(not provided)", "callClientUniqueId": "None", "successful": "false", "order": "None", "callId": "3908594", "utmSource": "<не указано>", "sipCallId": "77792b37-7a09-1237-3d94-0050569465cc", "clientId": "2049154808.1544630744", "callerNumber": "78652293445", "ip": "95.153.132.71/32", "utmTerm": "<не указано>", "userAgent": "Mozilla/5.0 (Linux; Android 8.0.0; SM-A750FN) AppleWebKit/537.36 (KHTML, like Gecko) Chrome/71.0.3578.83 Mobile Safari/537.36", "sessionId": "187391012", "utmCampaign": "<не указано>", "url": "http://morozova26.ru/", "attrs": "None", "phoneNumber": "78652979542", "uniqTargetCall": "false", "targetCall": "false", "attribution": "1", "utmMedium": "<не указано>", "orders": "[]"}
{"date": "2018-12-14 10:53:36", "callUrl": "None", "city": "vse regiony", "uniqueCall": "false", "redirectNumber": "78652410211", "utmContent": "<не заполнено>", "yaClientId": "None", "source": "yandex", "medium": "cpc", "callphase": "calldisconnected", "duration": "40", "ref": "https://www.yandex.ru/", "additionalTags": "[]", "hostname": "promo.morozova26.ru", "waitingConnect": "None", "ctCallerId": "e85f9be6d19c5624a953f3cbcc52f7c5", "callbackCall": "true", "keyword": "(not set)", "callClientUniqueId": "None", "successful": "true", "order": "None", "callId": "3912247", "utmSource": "yandex", "sipCallId": "None", "clientId": "", "callerNumber": "79054196169", "ip": "94.25.33.36/32", "utmTerm": "<не заполнено>", "userAgent": "Mozilla/5.0 (Windows NT 5.1; rv:52.0) Gecko/20100101 Firefox/52.0", "sessionId": "137400740", "utmCampaign": "rsya", "url": "http://promo.morozova26.ru/?utm_source=yandex&utm_medium=cpc&utm_campaign=rsya", "attrs": "None", "phoneNumber": "78652410211", "uniqTargetCall": "true", "targetCall": "true", "attribution": "1", "utmMedium": "cpc", "orders": "[]"}
{"date": "2018-12-14 14:55:52", "callUrl": "None", "city": "pyatigorsk", "uniqueCall": "true", "redirectNumber": "78652482044", "utmContent": "<не указано>", "yaClientId": "None", "source": "google", "medium": "organic", "callphase": "calldisconnected", "duration": "32", "ref": "http://www.google.com/", "additionalTags": "[]", "hostname": "morozova26.ru", "waitingConnect": "13", "ctCallerId": "f392b6eb4ee8be223463f5ff597bb311", "callbackCall": "false", "keyword": "(not provided)", "callClientUniqueId": "None", "successful": "true", "order": "None", "callId": "3921415", "utmSource": "<не указано>", "sipCallId": "0c5efff5-7a3a-1237-3d94-0050569465cc", "clientId": "", "callerNumber": "79283253770", "ip": "109.168.156.45/32", "utmTerm": "<не указано>", "userAgent": "Mozilla/5.0 (Linux; Android 8.0.0; PRA-TL10) AppleWebKit/537.36 (KHTML, like Gecko) Chrome/71.0.3578.98 Mobile Safari/537.36", "sessionId": "187880821", "utmCampaign": "<не указано>", "url": "http://morozova26.ru/about/", "attrs": "None", "phoneNumber": "78652979554", "uniqTargetCall": "true", "targetCall": "true", "attribution": "1", "utmMedium": "<не указано>", "orders": "[]"}
{"date": "2018-12-17 08:00:15", "callUrl": "None", "city": "sochi", "uniqueCall": "true", "redirectNumber": "78652410211", "utmContent": "<не указано>", "yaClientId": "None", "source": "yandex", "medium": "organic", "callphase": "calldisconnected", "duration": "0", "ref": "https://yandex.ru/searchapp?clid=2218572&prev_pageid=serp&prev_reqid=1544870682857867-1030826572670025116492071-sas1-5474-TCH&serp_only=1&text=жк усадьба ставрополь&uuid=71723f949ac6f110db78e0f586728e95&lr=36", "additionalTags": "[]", "hostname": "morozova26.ru", "waitingConnect": "37", "ctCallerId": "16954e95a94c8e231a488feec4e92ccc", "callbackCall": "true", "keyword": "жк усадьба ставрополь", "callClientUniqueId": "None", "successful": "false", "order": "None", "callId": "3961077", "utmSource": "<не указано>", "sipCallId": "None", "clientId": "1691680915.1544734328", "callerNumber": "79383133535", "ip": "178.34.162.185/32", "utmTerm": "<не указано>", "userAgent": "Mozilla/5.0 (iPhone; CPU iPhone OS 11_1_2 like Mac OS X) AppleWebKit/604.3.5 (KHTML, like Gecko) YaBrowser/16.3.3.4 YaApp_iOS/4.20 YaApp_iOS_Browser/4.20", "sessionId": "188901750", "utmCampaign": "<не указано>", "url": "http://morozova26.ru/", "attrs": "None", "phoneNumber": "78652410211", "uniqTargetCall": "false", "targetCall": "false", "attribution": "1", "utmMedium": "<не указано>", "orders": "[]"}
{"date": "2018-12-17 10:49:34", "callUrl": "None", "city": "elista", "uniqueCall": "true", "redirectNumber": "78652410211", "utmContent": "<не указано>", "yaClientId": "None", "source": "yandex", "medium": "organic", "callphase": "calldisconnected", "duration": "0", "ref": "https://yandex.ru/", "additionalTags": "[]", "hostname": "morozova26.ru", "waitingConnect": "20", "ctCallerId": "e47e7afbe2f185e66a1f5933ffd4382d", "callbackCall": "true", "keyword": "(not set)", "callClientUniqueId": "None", "successful": "false", "order": "None", "callId": "3966287", "utmSource": "<не указано>", "sipCallId": "None", "clientId": "1707874916.1544184790", "callerNumber": "79615428006", "ip": "85.173.148.201/32", "utmTerm": "<не указано>", "userAgent": "Mozilla/5.0 (Windows NT 10.0; Win64; x64) AppleWebKit/537.36 (KHTML, like Gecko) Chrome/71.0.3578.98 Safari/537.36", "sessionId": "190780584", "utmCampaign": "<не указано>", "url": "http://morozova26.ru/", "attrs": "None", "phoneNumber": "78652410211", "uniqTargetCall": "false", "targetCall": "false", "attribution": "1", "utmMedium": "<не указано>", "orders": "[]"}
{"date": "2018-12-17 14:00:38", "callUrl": "None", "city": "stavropol", "uniqueCall": "true", "redirectNumber": "78652482044", "utmContent": "<не указано>", "yaClientId": "None", "source": "yandex", "medium": "organic", "callphase": "calldisconnected", "duration": "20", "ref": "https://yandex.ru/", "additionalTags": "[]", "hostname": "morozova26.ru", "waitingConnect": "20", "ctCallerId": "233f841bcb615d897a3eb86d23044345", "callbackCall": "false", "keyword": "(not set)", "callClientUniqueId": "None", "successful": "true", "order": "None", "callId": "3974851", "utmSource": "<не указано>", "sipCallId": "d3f983b3-7c8d-1237-3d94-0050569465cc", "clientId": "", "callerNumber": "79283256560", "ip": "81.177.56.145/32", "utmTerm": "<не указано>", "userAgent": "Mozilla/5.0 (Android 6.0.1; Mobile; rv:63.0) Gecko/63.0 Firefox/63.0", "sessionId": "191054660", "utmCampaign": "<не указано>", "url": "http://morozova26.ru/", "attrs": "None", "phoneNumber": "78652979554", "uniqTargetCall": "false", "targetCall": "false", "attribution": "1", "utmMedium": "<не указано>", "orders": "[]"}
{"date": "2018-12-18 15:08:54", "callUrl": "None", "city": "krasnodar", "uniqueCall": "true", "redirectNumber": "78652482044", "utmContent": "<не указано>", "yaClientId": "None", "source": "nasledie26.ru", "medium": "referral", "callphase": "calldisconnected", "duration": "34", "ref": "http://www.nasledie26.ru/", "additionalTags": "[]", "hostname": "morozova26.ru", "waitingConnect": "19", "ctCallerId": "94c70c3cc83aa4d21b3706c85bd67f5a", "callbackCall": "false", "keyword": "(not set)", "callClientUniqueId": "None", "successful": "true", "order": "None", "callId": "4003574", "utmSource": "<не указано>", "sipCallId": "87ff52d4-7d60-1237-3d94-0050569465cc", "clientId": "", "callerNumber": "79887058075", "ip": "95.153.133.255/32", "utmTerm": "<не указано>", "userAgent": "Mozilla/5.0 (Windows NT 6.3; WOW64) AppleWebKit/537.36 (KHTML, like Gecko) Chrome/69.0.3497.100 YaBrowser/18.10.2.163 Yowser/2.5 Safari/537.36", "sessionId": "192441212", "utmCampaign": "<не указано>", "url": "http://www.morozova26.ru/commercial/", "attrs": "None", "phoneNumber": "78652979556", "uniqTargetCall": "true", "targetCall": "true", "attribution": "1", "utmMedium": "<не указано>", "orders": "[]"}
{"date": "2018-12-18 15:09:55", "callUrl": "None", "city": "krasnodar", "uniqueCall": "false", "redirectNumber": "78652482044", "utmContent": "<не указано>", "yaClientId": "None", "source": "nasledie26.ru", "medium": "referral", "callphase": "calldisconnected", "duration": "134", "ref": "http://www.nasledie26.ru/", "additionalTags": "[]", "hostname": "morozova26.ru", "waitingConnect": "9", "ctCallerId": "94c70c3cc83aa4d21b3706c85bd67f5a", "callbackCall": "false", "keyword": "(not set)", "callClientUniqueId": "None", "successful": "true", "order": "None", "callId": "4003611", "utmSource": "<не указано>", "sipCallId": "ac34b501-7d60-1237-3d94-0050569465cc", "clientId": "", "callerNumber": "79887058075", "ip": "95.153.133.255/32", "utmTerm": "<не указано>", "userAgent": "Mozilla/5.0 (Windows NT 6.3; WOW64) AppleWebKit/537.36 (KHTML, like Gecko) Chrome/69.0.3497.100 YaBrowser/18.10.2.163 Yowser/2.5 Safari/537.36", "sessionId": "192441212", "utmCampaign": "<не указано>", "url": "http://www.morozova26.ru/commercial/", "attrs": "None", "phoneNumber": "78652979556", "uniqTargetCall": "false", "targetCall": "true", "attribution": "1", "utmMedium": "<не указано>", "orders": "[]"}
{"date": "2018-12-19 12:02:03", "callUrl": "None", "city": "nizhny novgorod", "uniqueCall": "true", "redirectNumber": "78652482044", "utmContent": "319560146114", "yaClientId": "None", "source": "google", "medium": "cpc", "callphase": "calldisconnected", "duration": "267", "ref": "", "additionalTags": "[]", "hostname": "promo.morozova26.ru", "waitingConnect": "10", "ctCallerId": "5baffb3ababbaa1588cee0ddaed60645", "callbackCall": "false", "keyword": "купить элитную квартиру", "callClientUniqueId": "None", "successful": "true", "order": "None", "callId": "4022006", "utmSource": "google", "sipCallId": "97fbc623-7e0f-1237-3d94-0050569465cc", "clientId": "528048276.1545207957", "callerNumber": "78474599347", "ip": "176.213.8.61/32", "utmTerm": "купить элитную квартиру", "userAgent": "Mozilla/5.0 (Windows NT 6.1; Win64; x64) AppleWebKit/537.36 (KHTML, like Gecko) Chrome/71.0.3578.80 Safari/537.36", "sessionId": "193387840", "utmCampaign": "1658409985", "url": "http://promo.morozova26.ru/?utm_source=google&utm_medium=cpc&utm_campaign=1658409985&utm_content=319560146114&utm_term=+купить +элитную +квартиру&gclid=EAIaIQobChMIrrPqh7yr3wIVhpqbCh2o3wt5EAEYASAAEgIkk_D_BwE", "attrs": "None", "phoneNumber": "78652979556", "uniqTargetCall": "true", "targetCall": "true", "attribution": "1", "utmMedium": "cpc", "orders": "[]"}
{"date": "2018-12-20 12:14:05", "callUrl": "None", "city": "volgograd", "uniqueCall": "true", "redirectNumber": "78652482044", "utmContent": "<не указано>", "yaClientId": "None", "source": "yandex", "medium": "organic", "callphase": "calldisconnected", "duration": "0", "ref": "https://yandex.ru/clck/jsredir?bu=jtdl&from=yandex.ru;search/;web;;&text=&etext=2007.BSqQlidBmgiILIii_hgtkVzFpWAZ8rDtB--sFEk3qnS-7OLc09psvZJRG4a-hfouRwq3ysC7S2pWHO58uOx3fVZ6H6U0hzTyR2roQf9jndkQC8P-hujjQvBP7ZmWq3XiOAxEVbbj-0_rWh6MHBqC4Q.8a2024b85d5138dfb6f945d00a104a7525eefd55&uuid=&state=PEtFfuTeVD5kpHnK9lio9QkU1tHIaqSGmpn3NHuF9Zj6Zigwt1v0L_s0wCyGSAqoRkKgIikwrCSRZSUZfn0JMwEiPovRhuNQEaONZdvpHM35r52gPnKcTw,,&cst=AiuY0DBWFJ4EhnbxqmjDhSF8pebCLaT1mG6B6BpQhESdLNUN5oHgn8-TA11NPrFkeENLVgrXF8-B_es04Xoce1PUypG16lvu5qycO5rNWgyRg2S1Pdt62elWo9sbcX0psFhpwHE0QSeWNeGNv0vNKcmQwYjr_NXz82kWAGSVkGAssrdl3dJTW6uT2fX7ReIIIgDSrcNVQJtGDXiKRhkXyajTqzBaiWhPXWdh2BIgRLMfWE5hwS-Kg_ADzoqlc_aLikmV5gn4VpeKS-Wy2KejWovBcZ8PA2Vb40eaAI_MXPgR6p5pv3GCW47MMtyAtFMB&data=UlNrNmk5WktYejR0eWJFYk1LdmtxbnY1T3FmNkoySEp0TzVyYmtac2p0Ti1PVzN4Wk1xTnRHUXprSEYyT0M4eHhkTExuU091MDVzTktDQ0pLZjFKR0F6Ym40eVFERG9R&sign=d524107e0f7b54697408a43e7548b577&keyno=0&b64e=2&ref=orjY4mGPRjk5boDnW0uvlrrd71vZw9kpVBUyA8nmgRFrXyT8rpED9A9fyG580NNQvQCicF2db4", "additionalTags": "[]", "hostname": "morozova26.ru", "waitingConnect": "29", "ctCallerId": "e2ad0b715dfb12a8d5445098538ab1ba", "callbackCall": "false", "keyword": "<не заполнено>", "callClientUniqueId": "None", "successful": "false", "order": "None", "callId": "4047331", "utmSource": "<не указано>", "sipCallId": "70dfc76c-7eda-1237-3d94-0050569465cc", "clientId": "", "callerNumber": "79773272709", "ip": "94.233.82.76/32", "utmTerm": "<не указано>", "userAgent": "Mozilla/5.0 (Windows NT 10.0; Win64; x64) AppleWebKit/537.36 (KHTML, like Gecko) Chrome/71.0.3578.98 Safari/537.36", "sessionId": "194621425", "utmCampaign": "<не указано>", "url": "http://morozova26.ru/", "attrs": "None", "phoneNumber": "78652979556", "uniqTargetCall": "false", "targetCall": "false", "attribution": "1", "utmMedium": "<не указано>", "orders": "[]"}
{"date": "2018-12-20 12:14:42", "callUrl": "None", "city": "volgograd", "uniqueCall": "false", "redirectNumber": "78652482044", "utmContent": "<не указано>", "yaClientId": "None", "source": "yandex", "medium": "organic", "callphase": "calldisconnected", "duration": "416", "ref": "https://yandex.ru/clck/jsredir?bu=jtdl&from=yandex.ru;search/;web;;&text=&etext=2007.BSqQlidBmgiILIii_hgtkVzFpWAZ8rDtB--sFEk3qnS-7OLc09psvZJRG4a-hfouRwq3ysC7S2pWHO58uOx3fVZ6H6U0hzTyR2roQf9jndkQC8P-hujjQvBP7ZmWq3XiOAxEVbbj-0_rWh6MHBqC4Q.8a2024b85d5138dfb6f945d00a104a7525eefd55&uuid=&state=PEtFfuTeVD5kpHnK9lio9QkU1tHIaqSGmpn3NHuF9Zj6Zigwt1v0L_s0wCyGSAqoRkKgIikwrCSRZSUZfn0JMwEiPovRhuNQEaONZdvpHM35r52gPnKcTw,,&cst=AiuY0DBWFJ4EhnbxqmjDhSF8pebCLaT1mG6B6BpQhESdLNUN5oHgn8-TA11NPrFkeENLVgrXF8-B_es04Xoce1PUypG16lvu5qycO5rNWgyRg2S1Pdt62elWo9sbcX0psFhpwHE0QSeWNeGNv0vNKcmQwYjr_NXz82kWAGSVkGAssrdl3dJTW6uT2fX7ReIIIgDSrcNVQJtGDXiKRhkXyajTqzBaiWhPXWdh2BIgRLMfWE5hwS-Kg_ADzoqlc_aLikmV5gn4VpeKS-Wy2KejWovBcZ8PA2Vb40eaAI_MXPgR6p5pv3GCW47MMtyAtFMB&data=UlNrNmk5WktYejR0eWJFYk1LdmtxbnY1T3FmNkoySEp0TzVyYmtac2p0Ti1PVzN4Wk1xTnRHUXprSEYyT0M4eHhkTExuU091MDVzTktDQ0pLZjFKR0F6Ym40eVFERG9R&sign=d524107e0f7b54697408a43e7548b577&keyno=0&b64e=2&ref=orjY4mGPRjk5boDnW0uvlrrd71vZw9kpVBUyA8nmgRFrXyT8rpED9A9fyG580NNQvQCicF2db4", "additionalTags": "[]", "hostname": "morozova26.ru", "waitingConnect": "12", "ctCallerId": "e2ad0b715dfb12a8d5445098538ab1ba", "callbackCall": "false", "keyword": "<не заполнено>", "callClientUniqueId": "None", "successful": "true", "order": "None", "callId": "4047359", "utmSource": "<не указано>", "sipCallId": "86945ff8-7eda-1237-3d94-0050569465cc", "clientId": "", "callerNumber": "79773272709", "ip": "94.233.82.76/32", "utmTerm": "<не указано>", "userAgent": "Mozilla/5.0 (Windows NT 10.0; Win64; x64) AppleWebKit/537.36 (KHTML, like Gecko) Chrome/71.0.3578.98 Safari/537.36", "sessionId": "194621425", "utmCampaign": "<не указано>", "url": "http://morozova26.ru/", "attrs": "None", "phoneNumber": "78652979556", "uniqTargetCall": "true", "targetCall": "true", "attribution": "1", "utmMedium": "<не указано>", "orders": "[]"}
{"date": "2018-12-20 12:29:17", "callUrl": "None", "city": "sochi", "uniqueCall": "true", "redirectNumber": "78652482044", "utmContent": "<не указано>", "yaClientId": "None", "source": "google", "medium": "organic", "callphase": "calldisconnected", "duration": "27", "ref": "https://www.google.com/", "additionalTags": "[]", "hostname": "morozova26.ru", "waitingConnect": "17", "ctCallerId": "f1c7e1af844d34c3dfa5793bf37bab96", "callbackCall": "false", "keyword": "(not provided)", "callClientUniqueId": "None", "successful": "true", "order": "None", "callId": "4047930", "utmSource": "<не указано>", "sipCallId": "90a2a292-7edc-1237-3d94-0050569465cc", "clientId": "846145456.1503648800", "callerNumber": "79624078833", "ip": "178.34.162.165/32", "utmTerm": "<не указано>", "userAgent": "Mozilla/5.0 (Windows NT 5.1) AppleWebKit/537.36 (KHTML, like Gecko) Chrome/49.0.2623.112 Safari/537.36", "sessionId": "194645411", "utmCampaign": "<не указано>", "url": "http://morozova26.ru/", "attrs": "None", "phoneNumber": "78652979554", "uniqTargetCall": "false", "targetCall": "false", "attribution": "1", "utmMedium": "<не указано>", "orders": "[]"}
{"date": "2018-12-20 12:30:12", "callUrl": "None", "city": "sochi", "uniqueCall": "false", "redirectNumber": "78652482044", "utmContent": "<не указано>", "yaClientId": "None", "source": "google", "medium": "organic", "callphase": "calldisconnected", "duration": "276", "ref": "https://www.google.com/", "additionalTags": "[]", "hostname": "morozova26.ru", "waitingConnect": "13", "ctCallerId": "f1c7e1af844d34c3dfa5793bf37bab96", "callbackCall": "false", "keyword": "(not provided)", "callClientUniqueId": "None", "successful": "true", "order": "None", "callId": "4047968", "utmSource": "<не указано>", "sipCallId": "b1729f1c-7edc-1237-3d94-0050569465cc", "clientId": "846145456.1503648800", "callerNumber": "79624078833", "ip": "178.34.162.165/32", "utmTerm": "<не указано>", "userAgent": "Mozilla/5.0 (Windows NT 5.1) AppleWebKit/537.36 (KHTML, like Gecko) Chrome/49.0.2623.112 Safari/537.36", "sessionId": "194645411", "utmCampaign": "<не указано>", "url": "http://morozova26.ru/", "attrs": "None", "phoneNumber": "78652979554", "uniqTargetCall": "true", "targetCall": "true", "attribution": "1", "utmMedium": "<не указано>", "orders": "[]"}
{"date": "2018-12-20 13:09:08", "callUrl": "None", "city": "krasnodar", "uniqueCall": "false", "redirectNumber": "78652482044", "utmContent": "<не указано>", "yaClientId": "None", "source": "yandex", "medium": "organic", "callphase": "calldisconnected", "duration": "264", "ref": "https://yandex.ru/clck/jsredir?bu=ft7&from=yandex.ru;search/pad/;web;;&text=&etext=1959.E7VIVrwg2UnpLHokLw2pMKII8usf8qA_TTcHT_wU_74EV0ow6Dpwdnww-HXJ5XCnyGyuy_C5WpE98Bsx59KE-g.8356e93eeabb5ec4e454425b20c2d95288f77942&uuid=&state=PEtFfuTeVD5kpHnK9lio9T6U0-imFY5IWwl6BSUGTYm9ZV915H4XEUO-TlDL8zu0ViXmd4I-XZ85yoJ9unWnfa-CbFEZsaV15jBxLw1ROk6QuYT5Br74iIFsuTDzX_tCkvg8-Io7JEI,&cst=AiuY0DBWFJ5Hyx_fyvalFLvz4NbtdmO5ksCUMT4CLX0ruHz2EqbEOL_4GukxL4-5gf9EjP_5i_2Qs7334r1Tt8q_HjgNWOM_pKF2_Nf5Hyo29M8Cg1tjDUe_DHHDxn2Qa9mDRE3QkczmzQOCehS8gQmcvkhwSDn3IexIdJG7iUoIZ6HEbbULhbpElUf7m8GVOGWfBd2J6KIMmf9vaMtvgWYMwVflUtyL12b4z1K4TK53yih8d2b-RxIaYJlo-b7tXMdBuxYWmDWXg0tC_8yu7n9-bWcVWT1tvP87rD5pvKPF0rHjjf8FYpeiIXeP9GP3Mm1GVHL8XlT8BxPBrMRFx3CjDHA-TDiJED6aCLFy93loExCIYu8Zulmv8i_YqGyxU-kUYBMvDjgS3_7D4jKkNligCnRsJOF-BSXfQcYqydVy5kjpo93-wSA72hpruwYkiz4jl4M7o27ZHpc9d__hrHt6K0DRdlTjCtNOiKr0HFywUVjt7RZr5fXrZjvecg8D&data=UlNrNmk5WktYejR0eWJFYk1LdmtxbnY1T3FmNkoySEp0TzVyYmtac2p0Ti1PVzN4Wk1xTnRKRDhfNjJCMjQxLXNlaG92TmdvNHR1MHdGTkxSZ", "additionalTags": "[]", "hostname": "morozova26.ru", "waitingConnect": "17", "ctCallerId": "3684e9b0c4722a89e8fea4c3a7dd6a84", "callbackCall": "false", "keyword": "<не заполнено>", "callClientUniqueId": "None", "successful": "true", "order": "None", "callId": "4049423", "utmSource": "<не указано>", "sipCallId": "218b39a0-7ee2-1237-3d94-0050569465cc", "clientId": "", "callerNumber": "79200791444", "ip": "95.153.130.11/32", "utmTerm": "<не указано>", "userAgent": "Mozilla/5.0 (iPad; CPU OS 11_2_6 like Mac OS X) AppleWebKit/601.1.46 (KHTML, like Gecko) Version/11.0 YaBrowser/16.7.0.3679.11 Mobile/15D100 Safari/601.1", "sessionId": "138113280", "utmCampaign": "<не указано>", "url": "http://morozova26.ru/", "attrs": "None", "phoneNumber": "78652979542", "uniqTargetCall": "true", "targetCall": "true", "attribution": "1", "utmMedium": "<не указано>", "orders": "[]"}
{"date": "2018-12-21 10:22:47", "callUrl": "None", "city": "stavropol", "uniqueCall": "true", "redirectNumber": "78652482044", "utmContent": "<не указано>", "yaClientId": "None", "source": "google", "medium": "organic", "callphase": "calldisconnected", "duration": "34", "ref": "https://www.google.ru/", "additionalTags": "[]", "hostname": "morozova26.ru", "waitingConnect": "20", "ctCallerId": "040635887369b6875769d2441d98fcaf", "callbackCall": "false", "keyword": "(not provided)", "callClientUniqueId": "None", "successful": "true", "order": "None", "callId": "4066999", "utmSource": "<не указано>", "sipCallId": "0e92f697-7f94-1237-3d94-0050569465cc", "clientId": "1995751173.1541074568", "callerNumber": "78652283007", "ip": "178.237.177.218/32", "utmTerm": "<не указано>", "userAgent": "Mozilla/5.0 (X11; Linux x86_64) AppleWebKit/537.36 (KHTML, like Gecko) Chrome/71.0.3578.98 Safari/537.36", "sessionId": "160730971", "utmCampaign": "<не указано>", "url": "http://morozova26.ru/", "attrs": "None", "phoneNumber": "78652979542", "uniqTargetCall": "true", "targetCall": "true", "attribution": "1", "utmMedium": "<не указано>", "orders": "[]"}
{"date": "2018-12-21 10:31:14", "callUrl": "None", "city": "stavropol", "uniqueCall": "true", "redirectNumber": "78652482044", "utmContent": "<не указано>", "yaClientId": "None", "source": "google", "medium": "organic", "callphase": "calldisconnected", "duration": "468", "ref": "https://www.google.ru/", "additionalTags": "[]", "hostname": "morozova26.ru", "waitingConnect": "17", "ctCallerId": "a7348081c9a0c229d60d6719888d97c1", "callbackCall": "false", "keyword": "(not provided)", "callClientUniqueId": "None", "successful": "true", "order": "None", "callId": "4067348", "utmSource": "<не указано>", "sipCallId": "3d4dd1de-7f95-1237-3d94-0050569465cc", "clientId": "1995751173.1541074568", "callerNumber": "79246929133", "ip": "178.237.177.218/32", "utmTerm": "<не указано>", "userAgent": "Mozilla/5.0 (X11; Linux x86_64) AppleWebKit/537.36 (KHTML, like Gecko) Chrome/71.0.3578.98 Safari/537.36", "sessionId": "160730971", "utmCampaign": "<не указано>", "url": "http://morozova26.ru/", "attrs": "None", "phoneNumber": "78652979542", "uniqTargetCall": "true", "targetCall": "true", "attribution": "1", "utmMedium": "<не указано>", "orders": "[]"}
{"date": "2018-12-21 16:01:25", "callUrl": "None", "city": "sochi", "uniqueCall": "true", "redirectNumber": "78652482044", "utmContent": "319560146114", "yaClientId": "None", "source": "google", "medium": "cpc", "callphase": "calldisconnected", "duration": "351", "ref": "", "additionalTags": "[]", "hostname": "promo.morozova26.ru", "waitingConnect": "17", "ctCallerId": "323efbb465a669d7caeb30b7c5faa07e", "callbackCall": "false", "keyword": "купить элитную квартиру", "callClientUniqueId": "None", "successful": "true", "order": "None", "callId": "4080837", "utmSource": "google", "sipCallId": "5d1227df-7fc3-1237-3d94-0050569465cc", "clientId": "1630662834.1545392403", "callerNumber": "79188041838", "ip": "178.34.161.134/32", "utmTerm": "купить элитную квартиру", "userAgent": "Mozilla/5.0 (Linux; Android 4.4.2; ru-ru; SAMSUNG GT-I9190 Build/KOT49H) AppleWebKit/537.36 (KHTML, like Gecko) Version/1.5 Chrome/28.0.1500.94 Mobile Safari/537.36", "sessionId": "196030748", "utmCampaign": "1658409985", "url": "http://promo.morozova26.ru/?utm_source=google&utm_medium=cpc&utm_campaign=1658409985&utm_content=319560146114&utm_term=+купить +элитную +квартиру&gclid=EAIaIQobChMItrmVmPCw3wIVkZqyCh2BWw5CEAEYASAAEgIT9PD_BwE", "attrs": "None", "phoneNumber": "78652979542", "uniqTargetCall": "true", "targetCall": "true", "attribution": "1", "utmMedium": "cpc", "orders": "[]"}
{"date": "2018-12-21 17:44:30", "callUrl": "None", "city": "stavropol", "uniqueCall": "true", "redirectNumber": "78652482044", "utmContent": "<не указано>", "yaClientId": "None", "source": "(direct)", "medium": "(none)", "callphase": "calldisconnected", "duration": "520", "ref": "http://morozova26.ru/apartments/", "additionalTags": "[]", "hostname": "morozova26.ru", "waitingConnect": "16", "ctCallerId": "8905f341edc257c07e4d45be0efcd587", "callbackCall": "false", "keyword": "(not set)", "callClientUniqueId": "None", "successful": "true", "order": "None", "callId": "4083950", "utmSource": "<не указано>", "sipCallId": "c3b8fd6c-7fd1-1237-3d94-0050569465cc", "clientId": "956128557.1545400936", "callerNumber": "79188655026", "ip": "91.237.94.72/32", "utmTerm": "<не указано>", "userAgent": "Mozilla/5.0 (iPhone; CPU iPhone OS 12_1 like Mac OS X) AppleWebKit/605.1.15 (KHTML, like Gecko) Version/12.0 Mobile/15E148 Safari/604.1", "sessionId": "196160483", "utmCampaign": "<не указано>", "url": "http://morozova26.ru/service/", "attrs": "None", "phoneNumber": "78652979556", "uniqTargetCall": "true", "targetCall": "true", "attribution": "1", "utmMedium": "<не указано>", "orders": "[]"}
{"date": "2018-12-22 09:59:35", "callUrl": "None", "city": "sochi", "uniqueCall": "true", "redirectNumber": "78652482044", "utmContent": "<не указано>", "yaClientId": "None", "source": "google", "medium": "organic", "callphase": "calldisconnected", "duration": "1355", "ref": "https://www.google.com/", "additionalTags": "[]", "hostname": "morozova26.ru", "waitingConnect": "39", "ctCallerId": "fb594993a42ce52f110b6fc1c819b25b", "callbackCall": "false", "keyword": "(not provided)", "callClientUniqueId": "None", "successful": "true", "order": "None", "callId": "4090976", "utmSource": "<не указано>", "sipCallId": "fb8d8973-8059-1237-3d94-0050569465cc", "clientId": "530080369.1541738406", "callerNumber": "78652748325", "ip": "178.34.160.115/32", "utmTerm": "<не указано>", "userAgent": "Mozilla/5.0 (Windows NT 10.0; Win64; x64) AppleWebKit/537.36 (KHTML, like Gecko) Chrome/71.0.3578.98 Safari/537.36", "sessionId": "196684116", "utmCampaign": "<не указано>", "url": "http://morozova26.ru/about/", "attrs": "None", "phoneNumber": "78652979554", "uniqTargetCall": "true", "targetCall": "true", "attribution": "1", "utmMedium": "<не указано>", "orders": "[]"}
{"date": "2018-12-22 14:10:59", "callUrl": "None", "city": "jug", "uniqueCall": "true", "redirectNumber": "78652482044", "utmContent": "<не указано>", "yaClientId": "None", "source": "google", "medium": "organic", "callphase": "calldisconnected", "duration": "0", "ref": "https://www.google.ru/", "additionalTags": "[]", "hostname": "morozova26.ru", "waitingConnect": "26", "ctCallerId": "07c83cf9e92e3fe7112054345c205379", "callbackCall": "false", "keyword": "(not provided)", "callClientUniqueId": "None", "successful": "false", "order": "None", "callId": "4098413", "utmSource": "<не указано>", "sipCallId": "1a0222e7-807d-1237-3d94-0050569465cc", "clientId": "1992365487.1524428913", "callerNumber": "79288277385", "ip": "85.26.186.111/32", "utmTerm": "<не указано>", "userAgent": "Mozilla/5.0 (iPhone; CPU iPhone OS 12_0 like Mac OS X) AppleWebKit/605.1.15 (KHTML, like Gecko) Version/12.0 Mobile/15E148 Safari/604.1", "sessionId": "196915320", "utmCampaign": "<не указано>", "url": "http://morozova26.ru/about/", "attrs": "None", "phoneNumber": "78652979542", "uniqTargetCall": "false", "targetCall": "false", "attribution": "1", "utmMedium": "<не указано>", "orders": "[]"}
{"date": "2018-12-22 14:28:31", "callUrl": "None", "city": "stavropol", "uniqueCall": "false", "redirectNumber": "78652482044", "utmContent": "<не указано>", "yaClientId": "None", "source": "(direct)", "medium": "(none)", "callphase": "calldisconnected", "duration": "0", "ref": "http://morozova26.ru/apartments/", "additionalTags": "[]", "hostname": "morozova26.ru", "waitingConnect": "12", "ctCallerId": "8905f341edc257c07e4d45be0efcd587", "callbackCall": "false", "keyword": "(not set)", "callClientUniqueId": "None", "successful": "false", "order": "None", "callId": "4098870", "utmSource": "<не указано>", "sipCallId": "8d787800-807f-1237-3d94-0050569465cc", "clientId": "956128557.1545400936", "callerNumber": "79188655026", "ip": "91.237.94.72/32", "utmTerm": "<не указано>", "userAgent": "Mozilla/5.0 (iPhone; CPU iPhone OS 12_1 like Mac OS X) AppleWebKit/605.1.15 (KHTML, like Gecko) Version/12.0 Mobile/15E148 Safari/604.1", "sessionId": "196160483", "utmCampaign": "<не указано>", "url": "http://morozova26.ru/service/", "attrs": "None", "phoneNumber": "78652979556", "uniqTargetCall": "false", "targetCall": "false", "attribution": "1", "utmMedium": "<не указано>", "orders": "[]"}
{"date": "2018-12-22 15:45:56", "callUrl": "None", "city": "stavropol", "uniqueCall": "false", "redirectNumber": "78652482044", "utmContent": "<не указано>", "yaClientId": "None", "source": "(direct)", "medium": "(none)", "callphase": "calldisconnected", "duration": "0", "ref": "http://morozova26.ru/apartments/", "additionalTags": "[]", "hostname": "morozova26.ru", "waitingConnect": "49", "ctCallerId": "8905f341edc257c07e4d45be0efcd587", "callbackCall": "false", "keyword": "(not set)", "callClientUniqueId": "None", "successful": "false", "order": "None", "callId": "4100843", "utmSource": "<не указано>", "sipCallId": "5db6188c-808a-1237-3d94-0050569465cc", "clientId": "956128557.1545400936", "callerNumber": "79188655026", "ip": "91.237.94.72/32", "utmTerm": "<не указано>", "userAgent": "Mozilla/5.0 (iPhone; CPU iPhone OS 12_1 like Mac OS X) AppleWebKit/605.1.15 (KHTML, like Gecko) Version/12.0 Mobile/15E148 Safari/604.1", "sessionId": "196160483", "utmCampaign": "<не указано>", "url": "http://morozova26.ru/service/", "attrs": "None", "phoneNumber": "78652979556", "uniqTargetCall": "false", "targetCall": "false", "attribution": "1", "utmMedium": "<не указано>", "orders": "[]"}
{"date": "2018-12-22 15:46:53", "callUrl": "None", "city": "stavropol", "uniqueCall": "false", "redirectNumber": "78652482044", "utmContent": "<не указано>", "yaClientId": "None", "source": "(direct)", "medium": "(none)", "callphase": "calldisconnected", "duration": "0", "ref": "http://morozova26.ru/apartments/", "additionalTags": "[]", "hostname": "morozova26.ru", "waitingConnect": "25", "ctCallerId": "8905f341edc257c07e4d45be0efcd587", "callbackCall": "false", "keyword": "(not set)", "callClientUniqueId": "None", "successful": "false", "order": "None", "callId": "4100861", "utmSource": "<не указано>", "sipCallId": "7ff09c8f-808a-1237-3d94-0050569465cc", "clientId": "956128557.1545400936", "callerNumber": "79188655026", "ip": "91.237.94.72/32", "utmTerm": "<не указано>", "userAgent": "Mozilla/5.0 (iPhone; CPU iPhone OS 12_1 like Mac OS X) AppleWebKit/605.1.15 (KHTML, like Gecko) Version/12.0 Mobile/15E148 Safari/604.1", "sessionId": "196160483", "utmCampaign": "<не указано>", "url": "http://morozova26.ru/service/", "attrs": "None", "phoneNumber": "78652979556", "uniqTargetCall": "false", "targetCall": "false", "attribution": "1", "utmMedium": "<не указано>", "orders": "[]"}
{"date": "2018-12-23 13:08:45", "callUrl": "None", "city": "stavropol", "uniqueCall": "true", "redirectNumber": "78652482044", "utmContent": "6787953949", "yaClientId": "None", "source": "yandex", "medium": "cpc", "callphase": "calldisconnected", "duration": "0", "ref": "https://yabs.yandex.ru/count/HysoXeXNyye50Da14808CTPT7rm00000E0H00aW2OBm8Q09mrCNRqGs00ToDkHo80Pgxl8uva07Ywit3CPW1kjI_oJAu0PJwm_qQm06Y0TW1xBtI5k01vj2q4UW1Z0A80lV9YW6W0fJIlnNO0WBm0eZRq_iF-0Bmwl7WyPoCnoA00vcD_eWEY0E6jV7Y3PW3lDigg0CAi0C4k0J_0UW4aCiH-0J0zYg81S3sAf05ouHue0Mjy0oe1VJq2h05zFGAk0MWmXx01Sk4UCW5eC8Uu0K5y0K1c0Q0qApp3g06IAW6ICa6ypMO9Iui1axH1gTLgAp8J1yPsGO0001G6m000Aa7p5cGLZhp3cgm1u20c3JG1mBW1uOAyGTy1iIcJl5C68081j08X8A0WO2GW0BW28hftmg02W712W0000000F0_s0e2u0g0YNhu2i3y5QeB44U0D-tCMG00BpITdQrz1G3P2ynPa5Owymvgw0l0zYhm2mk83Aw_thu1w0mVu0q3YGxoqarY45ZnFv0Em8Gzc0xpw-2iueMBWqwW3i24FR0E0TWE0g4Fyj9DOX1OyJ_P3m0000000F0_u0y1W125r_iIa12MlFBbvl60rNQQ40aH00000000y3y0", "additionalTags": "[]", "hostname": "promo.morozova26.ru", "waitingConnect": "31", "ctCallerId": "043cd46c0c6e62b4dc4ef0b88145f651", "callbackCall": "false", "keyword": "жк усадьба", "callClientUniqueId": "None", "successful": "false", "order": "None", "callId": "4112630", "utmSource": "yandex", "sipCallId": "933a479e-813d-1237-3d94-0050569465cc", "clientId": "1833100928.1545559521", "callerNumber": "79624509802", "ip": "213.59.150.116/32", "utmTerm": "жк усадьба", "userAgent": "Mozilla/5.0 (Windows NT 6.1; WOW64) AppleWebKit/537.36 (KHTML, like Gecko) Chrome/69.0.3497.100 YaBrowser/18.10.2.163 Yowser/2.5 Safari/537.36", "sessionId": "197743315", "utmCampaign": "39775109", "url": "http://promo.morozova26.ru/?utm_source=yandex&utm_medium=cpc&utm_campaign=39775109&utm_content=6787953949&utm_term=жк усадьба&yclid=7642359033087412995", "attrs": "None", "phoneNumber": "78652979554", "uniqTargetCall": "false", "targetCall": "false", "attribution": "1", "utmMedium": "cpc", "orders": "[]"}
{"date": "2018-12-24 08:00:17", "callUrl": "None", "city": "stavropol", "uniqueCall": "true", "redirectNumber": "78652410211", "utmContent": "<не указано>", "yaClientId": "None", "source": "link.2gis.ru", "medium": "referral", "callphase": "calldisconnected", "duration": "44", "ref": "http://link.2gis.ru/2CEC00C7/v4-iphone/20181201/stavropol/70000001021993752?http://morozova26.ru/", "additionalTags": "[]", "hostname": "morozova26.ru", "waitingConnect": "None", "ctCallerId": "9c6f832a668bc65de4fb0f401fa2b892", "callbackCall": "true", "keyword": "(not set)", "callClientUniqueId": "None", "successful": "true", "order": "None", "callId": "4121650", "utmSource": "<не указано>", "sipCallId": "None", "clientId": "446851300.1544173952", "callerNumber": "79887607060", "ip": "95.153.132.2/32", "utmTerm": "<не указано>", "userAgent": "Mozilla/5.0 (iPhone; CPU iPhone OS 12_1 like Mac OS X) AppleWebKit/605.1.15 (KHTML, like Gecko) Version/12.0 Mobile/15E148 Safari/604.1", "sessionId": "196627658", "utmCampaign": "<не указано>", "url": "http://morozova26.ru/", "attrs": "None", "phoneNumber": "78652410211", "uniqTargetCall": "true", "targetCall": "true", "attribution": "1", "utmMedium": "<не указано>", "orders": "[]"}
{"date": "2018-12-24 15:17:10", "callUrl": "None", "city": "stavropol", "uniqueCall": "false", "redirectNumber": "undefined", "utmContent": "6787953949", "yaClientId": "None", "source": "yandex", "medium": "cpc", "callphase": "calldisconnected", "duration": "0", "ref": "https://yabs.yandex.ru/count/HysoXeXNyye50Da14808CTPT7rm00000E0H00aW2OBm8Q09mrCNRqGs00ToDkHo80Pgxl8uva07Ywit3CPW1kjI_oJAu0PJwm_qQm06Y0TW1xBtI5k01vj2q4UW1Z0A80lV9YW6W0fJIlnNO0WBm0eZRq_iF-0Bmwl7WyPoCnoA00vcD_eWEY0E6jV7Y3PW3lDigg0CAi0C4k0J_0UW4aCiH-0J0zYg81S3sAf05ouHue0Mjy0oe1VJq2h05zFGAk0MWmXx01Sk4UCW5eC8Uu0K5y0K1c0Q0qApp3g06IAW6ICa6ypMO9Iui1axH1gTLgAp8J1yPsGO0001G6m000Aa7p5cGLZhp3cgm1u20c3JG1mBW1uOAyGTy1iIcJl5C68081j08X8A0WO2GW0BW28hftmg02W712W0000000F0_s0e2u0g0YNhu2i3y5QeB44U0D-tCMG00BpITdQrz1G3P2ynPa5Owymvgw0l0zYhm2mk83Aw_thu1w0mVu0q3YGxoqarY45ZnFv0Em8Gzc0xpw-2iueMBWqwW3i24FR0E0TWE0g4Fyj9DOX1OyJ_P3m0000000F0_u0y1W125r_iIa12MlFBbvl60rNQQ40aH00000000y3y0", "additionalTags": "[]", "hostname": "promo.morozova26.ru", "waitingConnect": "4", "ctCallerId": "043cd46c0c6e62b4dc4ef0b88145f651", "callbackCall": "false", "keyword": "жк усадьба", "callClientUniqueId": "None", "successful": "false", "order": "None", "callId": "4138072", "utmSource": "yandex", "sipCallId": "None", "clientId": "1833100928.1545559521", "callerNumber": "79624509802", "ip": "213.59.150.116/32", "utmTerm": "жк усадьба", "userAgent": "Mozilla/5.0 (Windows NT 6.1; WOW64) AppleWebKit/537.36 (KHTML, like Gecko) Chrome/69.0.3497.100 YaBrowser/18.10.2.163 Yowser/2.5 Safari/537.36", "sessionId": "197743315", "utmCampaign": "39775109", "url": "http://promo.morozova26.ru/?utm_source=yandex&utm_medium=cpc&utm_campaign=39775109&utm_content=6787953949&utm_term=жк усадьба&yclid=7642359033087412995", "attrs": "None", "phoneNumber": "78652979556", "uniqTargetCall": "false", "targetCall": "false", "attribution": "1", "utmMedium": "cpc", "orders": "[]"}
{"date": "2018-12-25 15:29:46", "callUrl": "None", "city": "stavropol", "uniqueCall": "true", "redirectNumber": "78652410211", "utmContent": "<не указано>", "yaClientId": "None", "source": "yandex", "medium": "organic", "callphase": "calldisconnected", "duration": "0", "ref": "https://yandex.ru/", "additionalTags": "[]", "hostname": "morozova26.ru", "waitingConnect": "1", "ctCallerId": "6fd6e63f448fd14a77c8467e5d9d215e", "callbackCall": "true", "keyword": "(not set)", "callClientUniqueId": "None", "successful": "false", "order": "None", "callId": "4163765", "utmSource": "<не указано>", "sipCallId": "None", "clientId": "", "callerNumber": "79097708120", "ip": "85.115.248.242/32", "utmTerm": "<не указано>", "userAgent": "Mozilla/5.0 (Windows NT 6.1; Win64; x64; rv:64.0) Gecko/20100101 Firefox/64.0", "sessionId": "199983734", "utmCampaign": "<не указано>", "url": "http://morozova26.ru/", "attrs": "None", "phoneNumber": "78652410211", "uniqTargetCall": "false", "targetCall": "false", "attribution": "1", "utmMedium": "<не указано>", "orders": "[]"}
{"date": "2018-12-25 16:18:51", "callUrl": "None", "city": "stavropol", "uniqueCall": "true", "redirectNumber": "78652482044", "utmContent": "<не указано>", "yaClientId": "None", "source": "google", "medium": "organic", "callphase": "calldisconnected", "duration": "28", "ref": "http://www.google.com/", "additionalTags": "[]", "hostname": "morozova26.ru", "waitingConnect": "12", "ctCallerId": "0d2f8c4aab91ed6e52d96f7362bdee49", "callbackCall": "false", "keyword": "(not provided)", "callClientUniqueId": "None", "successful": "true", "order": "None", "callId": "4165490", "utmSource": "<не указано>", "sipCallId": "76657667-82ea-1237-3d94-0050569465cc", "clientId": "", "callerNumber": "79064424555", "ip": "81.177.240.122/32", "utmTerm": "<не указано>", "userAgent": "Mozilla/5.0 (Linux; Android 7.0; SM-A310F) AppleWebKit/537.36 (KHTML, like Gecko) Chrome/71.0.3578.99 Mobile Safari/537.36", "sessionId": "200074761", "utmCampaign": "<не указано>", "url": "http://morozova26.ru/about/", "attrs": "None", "phoneNumber": "78652979554", "uniqTargetCall": "false", "targetCall": "false", "attribution": "1", "utmMedium": "<не указано>", "orders": "[]"}
{"date": "2018-12-25 16:21:29", "callUrl": "None", "city": "stavropol", "uniqueCall": "false", "redirectNumber": "78652482044", "utmContent": "<не указано>", "yaClientId": "None", "source": "google", "medium": "organic", "callphase": "calldisconnected", "duration": "199", "ref": "http://www.google.com/", "additionalTags": "[]", "hostname": "morozova26.ru", "waitingConnect": "14", "ctCallerId": "0d2f8c4aab91ed6e52d96f7362bdee49", "callbackCall": "false", "keyword": "(not provided)", "callClientUniqueId": "None", "successful": "true", "order": "None", "callId": "4165587", "utmSource": "<не указано>", "sipCallId": "d4c6e265-82ea-1237-3d94-0050569465cc", "clientId": "", "callerNumber": "79064424555", "ip": "81.177.240.122/32", "utmTerm": "<не указано>", "userAgent": "Mozilla/5.0 (Linux; Android 7.0; SM-A310F) AppleWebKit/537.36 (KHTML, like Gecko) Chrome/71.0.3578.99 Mobile Safari/537.36", "sessionId": "200074761", "utmCampaign": "<не указано>", "url": "http://morozova26.ru/about/", "attrs": "None", "phoneNumber": "78652979554", "uniqTargetCall": "true", "targetCall": "true", "attribution": "1", "utmMedium": "<не указано>", "orders": "[]"}
{"date": "2018-12-26 11:17:54", "callUrl": "None", "city": "krasnodar", "uniqueCall": "false", "redirectNumber": "78652482044", "utmContent": "<не указано>", "yaClientId": "None", "source": "nasledie26.ru", "medium": "referral", "callphase": "calldisconnected", "duration": "0", "ref": "http://www.nasledie26.ru/", "additionalTags": "[]", "hostname": "morozova26.ru", "waitingConnect": "42", "ctCallerId": "94c70c3cc83aa4d21b3706c85bd67f5a", "callbackCall": "false", "keyword": "(not set)", "callClientUniqueId": "None", "successful": "false", "order": "None", "callId": "4178323", "utmSource": "<не указано>", "sipCallId": "95fa432f-8389-1237-3d94-0050569465cc", "clientId": "", "callerNumber": "79887058075", "ip": "95.153.133.255/32", "utmTerm": "<не указано>", "userAgent": "Mozilla/5.0 (Windows NT 6.3; WOW64) AppleWebKit/537.36 (KHTML, like Gecko) Chrome/69.0.3497.100 YaBrowser/18.10.2.163 Yowser/2.5 Safari/537.36", "sessionId": "192441212", "utmCampaign": "<не указано>", "url": "http://www.morozova26.ru/commercial/", "attrs": "None", "phoneNumber": "78652979542", "uniqTargetCall": "false", "targetCall": "false", "attribution": "1", "utmMedium": "<не указано>", "orders": "[]"}
{"date": "2018-12-26 15:30:33", "callUrl": "None", "city": "stavropol", "uniqueCall": "true", "redirectNumber": "78652482044", "utmContent": "6787953952", "yaClientId": "None", "source": "yandex", "medium": "cpc", "callphase": "calldisconnected", "duration": "203", "ref": "https://yabs.yandex.ru/count/TwIG7OieGkW500e2CSjp8rm00000EEu2G0980c2y26W2SDJ5sz4DW07ndFUE18W1dBkyZZcG0U3gpSCnc070rB_9ChW1bFh3_Hh00LpO0UozqXRW0URGj17e0Om2e0AKqhyLs082y0BzaVp82_W2aF62vgNrkzXpW0EPZVw83eW3XhNnuWsO0_7LAwW31h031BW4_m7e1AV92_W4cSSoY0MPnpAG1Sk4UA05hfKFg0MSxGom1Ppj3BW5eC8Um0NBX7Z81Q327k051V050PW6WD2iymwW1aYe1aZ91Y97dWYEvyfFqGQqGFq2Bz4Y6Ta6000044y0002f1yaNhDTlKmXhi0U0W9Wiq0S2u0U62l47oqrCxqE13Pg020JG2822W860a802u0YAwTyAW0e1mGe00000003mFzWA0k0AW8bw-0h0_1Mg2n3F5YN4oHS008MKglNhVGK0sGl95wpNRrC8Q-WBcSSoy0i3Y0oklzw-0UWC7-0D0V8D93CtCpXZDJOqBJ1XDJGjD3LbC2quD3GoBJ0oDZ0rP3SsOsDYPeaEoNQ-dnelwJ-G3i24FPWEeexvnE3nkULFe0x0X3sm3W7O3WMX3m0000000F0_sGy00000003mF-0F0O0GXTVx4f0GbhpovURnWDLscX094G0000000F0_-13-__________y1Y142a142?q=усадьба морозова ставрополь&from=yandex.ru;search", "additionalTags": "[]", "hostname": "promo.morozova26.ru", "waitingConnect": "15", "ctCallerId": "cb03c656f30e506079cb343cc410a16e", "callbackCall": "false", "keyword": "усадьба морозова", "callClientUniqueId": "None", "successful": "true", "order": "None", "callId": "4187816", "utmSource": "yandex", "sipCallId": "e1b470a3-83ac-1237-3d94-0050569465cc", "clientId": "", "callerNumber": "79624517586", "ip": "212.96.109.7/32", "utmTerm": "усадьба морозова", "userAgent": "Mozilla/5.0 (Linux; Android 8.0.0; PRA-TL10) AppleWebKit/537.36 (KHTML, like Gecko) Chrome/71.0.3578.99 Mobile Safari/537.36", "sessionId": "201083225", "utmCampaign": "39775109", "url": "http://promo.morozova26.ru/?utm_source=yandex&utm_medium=cpc&utm_campaign=39775109&utm_content=6787953952&utm_term=усадьба морозова&yclid=7712506775301282157", "attrs": "None", "phoneNumber": "78652979542", "uniqTargetCall": "true", "targetCall": "true", "attribution": "1", "utmMedium": "cpc", "orders": "[]"}
{"date": "2018-12-26 17:22:16", "callUrl": "None", "city": "stavropol", "uniqueCall": "false", "redirectNumber": "78652482044", "utmContent": "<не заполнено>", "yaClientId": "None", "source": "yandex", "medium": "cpc", "callphase": "calldisconnected", "duration": "0", "ref": "", "additionalTags": "[]", "hostname": "promo.morozova26.ru", "waitingConnect": "12", "ctCallerId": "89192013f32366b7676160211d9e1bbc", "callbackCall": "false", "keyword": "<не заполнено>", "callClientUniqueId": "None", "successful": "false", "order": "None", "callId": "4190940", "utmSource": "yandex", "sipCallId": "7c974741-83bc-1237-3d94-0050569465cc", "clientId": "", "callerNumber": "79188025694", "ip": "82.119.135.118/32", "utmTerm": "<не заполнено>", "userAgent": "Mozilla/5.0 (X11; Linux x86_64) AppleWebKit/537.36 (KHTML, like Gecko) Chrome/70.0.3538.110 Safari/537.36", "sessionId": "185106524", "utmCampaign": "rsya", "url": "http://promo.morozova26.ru/?utm_source=yandex&utm_medium=cpc&utm_campaign=rsya", "attrs": "None", "phoneNumber": "78652979542", "uniqTargetCall": "false", "targetCall": "false", "attribution": "1", "utmMedium": "cpc", "orders": "[]"}
{"date": "2018-12-26 17:22:38", "callUrl": "None", "city": "stavropol", "uniqueCall": "false", "redirectNumber": "78652482044", "utmContent": "<не заполнено>", "yaClientId": "None", "source": "yandex", "medium": "cpc", "callphase": "calldisconnected", "duration": "0", "ref": "", "additionalTags": "[]", "hostname": "promo.morozova26.ru", "waitingConnect": "12", "ctCallerId": "89192013f32366b7676160211d9e1bbc", "callbackCall": "false", "keyword": "<не заполнено>", "callClientUniqueId": "None", "successful": "false", "order": "None", "callId": "4190946", "utmSource": "yandex", "sipCallId": "89cdb8ae-83bc-1237-3d94-0050569465cc", "clientId": "", "callerNumber": "79188025694", "ip": "82.119.135.118/32", "utmTerm": "<не заполнено>", "userAgent": "Mozilla/5.0 (X11; Linux x86_64) AppleWebKit/537.36 (KHTML, like Gecko) Chrome/70.0.3538.110 Safari/537.36", "sessionId": "185106524", "utmCampaign": "rsya", "url": "http://promo.morozova26.ru/?utm_source=yandex&utm_medium=cpc&utm_campaign=rsya", "attrs": "None", "phoneNumber": "78652979542", "uniqTargetCall": "false", "targetCall": "false", "attribution": "1", "utmMedium": "cpc", "orders": "[]"}
{"date": "2018-12-27 08:00:11", "callUrl": "None", "city": "stavropol", "uniqueCall": "true", "redirectNumber": "78652410211", "utmContent": "319495274297", "yaClientId": "None", "source": "google", "medium": "cpc", "callphase": "calldisconnected", "duration": "0", "ref": "", "additionalTags": "[]", "hostname": "promo.morozova26.ru", "waitingConnect": "36", "ctCallerId": "d8cca795fa18e2a498ad6d671da4426c", "callbackCall": "true", "keyword": "элитные квартиры ставрополь", "callClientUniqueId": "None", "successful": "false", "order": "None", "callId": "4196038", "utmSource": "google", "sipCallId": "None", "clientId": "1822823631.1545853210", "callerNumber": "79097587979", "ip": "81.177.248.106/32", "utmTerm": "элитные квартиры ставрополь", "userAgent": "Mozilla/5.0 (Linux; Android 8.0.0; SM-G955F) AppleWebKit/537.36 (KHTML, like Gecko) Chrome/71.0.3578.99 Mobile Safari/537.36", "sessionId": "201475563", "utmCampaign": "1658014039", "url": "http://promo.morozova26.ru/?utm_source=google&utm_medium=cpc&utm_campaign=1658014039&utm_content=319495274297&utm_term=+элитные +квартиры +ставрополь&gclid=Cj0KCQiA6ozhBRC8ARIsAIh_VC3mqYVHpWFyK7TSpFST42Kxe5Lg00fe1OXA5GYEFqVWvzMu_TRbW8MaAmgZEALw_wcB", "attrs": "None", "phoneNumber": "78652410211", "uniqTargetCall": "false", "targetCall": "false", "attribution": "1", "utmMedium": "cpc", "orders": "[]"}
{"date": "2018-12-29 17:13:34", "callUrl": "None", "city": "stavropol", "uniqueCall": "true", "redirectNumber": "78652482044", "utmContent": "6787829936", "yaClientId": "None", "source": "yandex", "medium": "cpc", "callphase": "calldisconnected", "duration": "0", "ref": "https://yabs.yandex.ru/count/JlhozATxgXm50DO1CKw09rm00000ECu3G098162y26W2SChudF05W06UZR3MlzRnjfi1Y07Kd9AEEP01whF1mp6O0U32iCaok068bRtz6i01NDW1uA3I5k01vj2q4UW1NA02bDA_5TW20l02rutKmGVu0l3gyU2HfxFzR9W3mOeYg0CAi0C4i0G1k0J_0UW4yf49-0I9lLI81OczL905ouHue0Nsgnce1Okz5R05YxqLk0MWmXx01Sk4UCW5eC8Uu0K5y0K1c0Q0qApp3g06IAW6ICa6xzmW0qo2frlH1hGJuzMT4am2sGO0000G9G000Aa7RsTqGXXp_skm1u20c2JG1mBW1uOAyGTpoGcItKPZP8081j08X8A0WO2GW0BW28hftmg02W712W0000000F0_s0e2u0g0YNhu2i3y5QeB4APJtT5lPm00LA-KlIb-1G3P2szdT48OS_zhw0k9lLJm2mI83Aw_thu1w0mVu0q3YGu00000003mFv0Em8Gzc0xlkOEPmCdWqrkW3i24FR0E0TWE0g4F00000000y3_P3m0000000F0_u0y1W12KlFiIa12MlFBbvl60rNQQ40aH00000000y3_u40A04G684G6G4G40?q=аспект ставрополь", "additionalTags": "[]", "hostname": "promo.morozova26.ru", "waitingConnect": "30", "ctCallerId": "5c3827f28506ae91c941c7831ccc0aff", "callbackCall": "false", "keyword": "аспект ставрополь", "callClientUniqueId": "None", "successful": "false", "order": "None", "callId": "4253642", "utmSource": "yandex", "sipCallId": "c4ccfd8e-8616-1237-3d94-0050569465cc", "clientId": "1566750001.1546092633", "callerNumber": "79624504830", "ip": "91.232.204.147/32", "utmTerm": "аспект ставрополь", "userAgent": "Mozilla/5.0 (iPad; CPU OS 10_3_3 like Mac OS X) AppleWebKit/603.3.8 (KHTML, like Gecko) Version/10.0 Mobile/14G60 Safari/602.1", "sessionId": "203970522", "utmCampaign": "39771668", "url": "http://promo.morozova26.ru/?utm_source=yandex&utm_medium=cpc&utm_campaign=39771668&utm_content=6787829936&utm_term=аспект ставрополь&yclid=7782066716937587470", "attrs": "None", "phoneNumber": "78652979556", "uniqTargetCall": "false", "targetCall": "false", "attribution": "1", "utmMedium": "cpc", "orders": "[]"}
{"date": "2018-12-30 09:07:26", "callUrl": "None", "city": "jug", "uniqueCall": "true", "redirectNumber": "78652482044", "utmContent": "319560146114", "yaClientId": "None", "source": "google", "medium": "cpc", "callphase": "calldisconnected", "duration": "0", "ref": "", "additionalTags": "[]", "hostname": "promo.morozova26.ru", "waitingConnect": "25", "ctCallerId": "ac22c16c083eda42ce97f63d28744c3d", "callbackCall": "false", "keyword": "купить элитную квартиру", "callClientUniqueId": "None", "successful": "false", "order": "None", "callId": "4258184", "utmSource": "google", "sipCallId": "05b034d3-869c-1237-3d94-0050569465cc", "clientId": "1616227472.1545405488", "callerNumber": "79280107178", "ip": "31.41.229.214/32", "utmTerm": "купить элитную квартиру", "userAgent": "Mozilla/5.0 (Windows NT 6.1) AppleWebKit/537.36 (KHTML, like Gecko) Chrome/71.0.3578.98 Safari/537.36", "sessionId": "204341334", "utmCampaign": "1658409985", "url": "http://promo.morozova26.ru/?utm_source=google&utm_medium=cpc&utm_campaign=1658409985&utm_content=319560146114&utm_term=+купить +элитную +квартиру&gclid=EAIaIQobChMIkbbKx-_G3wIVJpJ3Ch279gcoEAEYASAAEgJxz_D_BwE", "attrs": "None", "phoneNumber": "78652979542", "uniqTargetCall": "false", "targetCall": "false", "attribution": "1", "utmMedium": "cpc", "orders": "[]"}
